0,1641591177020,1641591177055,35
1,1641591177340,1641591177350,10
2,1641591177494,1641591177504,10
3,1641591178210,1641591180473,2263
4,1641591178318,undefined,NaN
5,1641591178847,undefined,NaN
6,1641591179655,undefined,NaN
7,1641591179701,undefined,NaN
8,1641591179874,undefined,NaN
9,1641591180372,1641591180554,182
10,1641591181148,1641591181158,10
11,1641591181985,1641591181997,12
12,1641591182499,1641591182790,291
13,1641591182577,1641591183205,628
14,1641591182869,undefined,NaN
15,1641591183072,undefined,NaN
16,1641591183690,1641591183700,10
17,1641591184371,1641591184380,9
18,1641591188167,1641591190470,2303
19,1641591188462,undefined,NaN
20,1641591188569,undefined,NaN
21,1641591188631,undefined,NaN
22,1641591190229,undefined,NaN
23,1641591190277,undefined,NaN
24,1641591191336,1641591191346,10
25,1641591191398,1641591191421,23
26,1641591191663,1641591191672,9
27,1641591191848,1641591191857,9
28,1641591193144,1641591193153,9
29,1641591193815,1641591194054,239
30,1641591193878,1641591194065,187
31,1641591194065,1641591194075,10
32,1641591194345,1641591194354,9
33,1641591194354,1641591194363,9
34,1641591195045,1641591195062,17
35,1641591195356,1641591195365,9
36,1641591195433,1641591195455,22
37,1641591197226,1641591197461,235
38,1641591197696,1641591200461,2765
39,1641591199105,undefined,NaN
40,1641591200033,undefined,NaN
41,1641591200095,undefined,NaN
42,1641591200360,1641591200534,174
43,1641591200672,1641591200681,9
44,1641591200921,1641591200932,11
45,1641591201648,1641591201659,11
46,1641591201867,1641591201878,11
47,1641591201898,1641591201908,10
48,1641591201975,1641591201983,8
49,1641591201983,1641591201992,9
50,1641591203762,1641591203772,10
51,1641591203839,1641591203853,14
52,1641591203978,1641591203989,11
53,1641591204210,1641591204220,10
54,1641591204942,1641591204954,12
55,1641591205301,1641591205312,11
56,1641591207071,1641591207082,11
57,1641591207428,1641591207440,12
58,1641591207908,1641591210489,2581
59,1641591208806,undefined,NaN
60,1641591209258,undefined,NaN
61,1641591209520,undefined,NaN
62,1641591209895,undefined,NaN
63,1641591210253,1641591210538,285
64,1641591210468,undefined,NaN
65,1641591210515,1641591210552,37
66,1641591212235,1641591212245,10
67,1641591212712,1641591212723,11
68,1641591212899,1641591212921,22
69,1641591213023,1641591213032,9
70,1641591213131,1641591213140,9
71,1641591213641,1641591213650,9
72,1641591213782,1641591213790,8
73,1641591214217,1641591214226,9
74,1641591215634,1641591215643,9
75,1641591216551,1641591216562,11
76,1641591216881,1641591216915,34
77,1641591217533,1641591217542,9
78,1641591217611,1641591220530,2919
79,1641591217826,undefined,NaN
80,1641591218229,undefined,NaN
81,1641591218385,undefined,NaN
82,1641591218447,undefined,NaN
83,1641591220263,1641591220580,317
84,1641591220931,1641591220941,10
85,1641591221073,1641591221082,9
86,1641591222385,1641591222395,10
87,1641591223224,1641591223238,14
88,1641591223894,1641591223903,9
89,1641591224251,1641591224262,11
90,1641591224359,1641591224368,9
91,1641591225114,1641591225127,13
92,1641591225426,1641591225436,10
93,1641591225798,1641591225809,11
94,1641591225861,1641591225872,11
95,1641591226686,1641591226696,10
96,1641591227088,1641591227098,10
97,1641591227462,1641591227476,14
98,1641591227864,1641591230542,2678
99,1641591228394,undefined,NaN
100,1641591228781,undefined,NaN
101,1641591228874,undefined,NaN
102,1641591229893,undefined,NaN
103,1641591230500,1641591230600,100
104,1641591231153,1641591231165,12
105,1641591231308,1641591231317,9
106,1641591231463,1641591231476,13
107,1641591232421,1641591232437,16
108,1641591232951,1641591232959,8
109,1641591233011,1641591233021,10
110,1641591233151,1641591233162,11
111,1641591233599,1641591233609,10
112,1641591233785,1641591233796,11
113,1641591233896,1641591233904,8
114,1641591234084,1641591234095,11
115,1641591234304,1641591234315,11
116,1641591234523,1641591234535,12
117,1641591235596,1641591235607,11
118,1641591235668,1641591235679,11
119,1641591235877,1641591235888,11
120,1641591235935,1641591235946,11
121,1641591235953,1641591235977,24
122,1641591236261,1641591236272,11
123,1641591237088,1641591237099,11
124,1641591237390,1641591237401,11
125,1641591237683,1641591240520,2837
126,1641591238478,undefined,NaN
127,1641591238694,undefined,NaN
128,1641591238975,undefined,NaN
129,1641591239332,undefined,NaN
130,1641591239378,undefined,NaN
131,1641591239659,undefined,NaN
132,1641591239829,1641591240584,755
133,1641591239921,undefined,NaN
134,1641591240355,undefined,NaN
135,1641591241225,1641591241266,41
136,1641591241350,1641591241364,14
137,1641591241676,1641591241687,11
138,1641591242341,1641591242352,11
139,1641591242959,1641591242971,12
140,1641591243144,1641591243156,12
141,1641591243487,1641591243498,11
142,1641591243627,1641591243638,11
143,1641591243814,1641591243824,10
144,1641591244124,1641591244134,10
145,1641591244373,1641591244530,157
146,1641591245723,1641591245734,11
147,1641591246156,1641591246166,10
148,1641591246388,1641591246399,11
149,1641591246561,1641591246572,11
151,1641591246774,1641591246784,10
152,1641591247274,1641591247286,12
153,1641591248019,1641591250542,2523
154,1641591248049,undefined,NaN
155,1641591248206,undefined,NaN
156,1641591248221,undefined,NaN
157,1641591248378,undefined,NaN
158,1641591248518,undefined,NaN
159,1641591250784,1641591250794,10
160,1641591251112,1641591251122,10
161,1641591251703,1641591251714,11
162,1641591252073,1641591252083,10
163,1641591252726,1641591253049,323
164,1641591252961,undefined,NaN
165,1641591253101,1641591253112,11
166,1641591253659,1641591253670,11
167,1641591253895,1641591253905,10
168,1641591254471,1641591254485,14
169,1641591254534,1641591254547,13
170,1641591254596,1641591254605,9
171,1641591255109,1641591255120,11
172,1641591255871,1641591256197,326
173,1641591255933,1641591256217,284
174,1641591256119,undefined,NaN
175,1641591257438,1641591257449,11
176,1641591259815,1641591260581,766
177,1641591259954,undefined,NaN
178,1641591259985,undefined,NaN
179,1641591260110,undefined,NaN
180,1641591261126,1641591261136,10
181,1641591261141,1641591261150,9
182,1641591261578,1641591261589,11
183,1641591261874,1641591261885,11
184,1641591261997,1641591262006,9
185,1641591262940,1641591262951,11
186,1641591263218,1641591263229,11
187,1641591264799,1641591264810,11
188,1641591265143,1641591265160,17
189,1641591265545,1641591265556,11
190,1641591266558,1641591266569,11
191,1641591267351,1641591267362,11
192,1641591267958,1641591270611,2653
193,1641591268811,undefined,NaN
194,1641591269605,undefined,NaN
195,1641591269683,undefined,NaN
196,1641591269992,undefined,NaN
197,1641591270179,1641591270684,505
198,1641591270644,1641591270738,94
199,1641591270684,1641591270796,112
200,1641591271096,1641591271105,9
201,1641591271526,1641591271537,11
202,1641591272162,1641591272173,11
203,1641591272225,1641591272242,17
204,1641591272277,1641591272285,8
205,1641591272914,1641591272924,10
206,1641591272951,1641591272961,10
207,1641591273966,1641591273977,11
208,1641591274281,1641591274291,10
209,1641591275444,1641591275851,407
210,1641591275770,1641591275861,91
211,1641591275786,undefined,NaN
212,1641591276098,1641591276108,10
213,1641591277462,1641591277473,11
214,1641591277664,1641591280581,2917
215,1641591278222,undefined,NaN
216,1641591278547,undefined,NaN
217,1641591278855,undefined,NaN
218,1641591280173,1641591280631,458
219,1641591280581,1641591280641,60
220,1641591281909,1641591281920,11
221,1641591282017,1641591282026,9
222,1641591282157,1641591282167,10
223,1641591282187,1641591282197,10
224,1641591282821,1641591282833,12
225,1641591282868,1641591282886,18
226,1641591283196,1641591283210,14
227,1641591283428,1641591283439,11
228,1641591284849,1641591284860,11
229,1641591286049,1641591286059,10
230,1641591288023,1641591290626,2603
231,1641591288726,undefined,NaN
232,1641591289656,undefined,NaN
233,1641591290244,1641591290910,666
234,1641591291977,1641591291988,11
235,1641591293754,1641591293765,11
236,1641591294366,1641591294377,11
237,1641591295854,1641591295864,10
238,1641591296539,1641591296549,10
239,1641591296632,1641591296644,12
240,1641591296788,1641591296799,11
241,1641591296819,1641591296828,9
242,1641591297726,1641591300705,2979
243,1641591297911,undefined,NaN
244,1641591298238,undefined,NaN
245,1641591298718,1641591300763,2045
246,1641591298987,undefined,NaN
247,1641591299065,undefined,NaN
248,1641591299516,undefined,NaN
249,1641591300423,undefined,NaN
250,1641591300534,undefined,NaN
251,1641591301176,1641591301192,16
252,1641591301645,1641591301656,11
253,1641591301862,1641591302012,150
254,1641591302034,1641591302683,649
255,1641591302112,undefined,NaN
256,1641591302917,1641591302928,11
257,1641591303444,1641591303456,12
258,1641591303586,1641591303597,11
259,1641591303678,1641591303688,10
260,1641591303848,1641591303860,12
261,1641591303941,1641591303951,10
262,1641591304081,1641591304090,9
263,1641591304159,1641591304197,38
264,1641591305025,1641591305034,9
265,1641591305600,1641591305612,12
266,1641591306456,1641591306465,9
267,1641591307013,1641591307023,10
268,1641591308072,1641591310666,2594
269,1641591308181,undefined,NaN
270,1641591308336,undefined,NaN
271,1641591308384,undefined,NaN
272,1641591308537,undefined,NaN
273,1641591308832,undefined,NaN
274,1641591309355,undefined,NaN
275,1641591309558,undefined,NaN
276,1641591310243,1641591310717,474
277,1641591312028,1641591312039,11
278,1641591312614,1641591312625,11
279,1641591312940,1641591313071,131
280,1641591313526,1641591313538,12
281,1641591313993,1641591314006,13
282,1641591314085,1641591314094,9
283,1641591314580,1641591314592,12
284,1641591315634,1641591315646,12
285,1641591316178,1641591316189,11
286,1641591317779,1641591320676,2897
287,1641591318168,undefined,NaN
288,1641591318353,undefined,NaN
289,1641591318895,undefined,NaN
290,1641591321048,1641591321059,11
291,1641591322482,1641591322493,11
292,1641591322528,1641591322539,11
293,1641591322700,1641591322712,12
294,1641591323411,1641591323424,13
295,1641591323950,1641591323961,11
296,1641591325468,1641591325482,14
297,1641591325628,1641591325640,12
298,1641591325830,1641591325841,11
299,1641591326391,1641591326403,12
300,1641591327291,1641591327306,15
302,1641591327985,undefined,NaN
303,1641591328107,undefined,NaN
304,1641591328276,undefined,NaN
305,1641591328417,undefined,NaN
306,1641591328571,undefined,NaN
307,1641591328665,undefined,NaN
308,1641591329055,undefined,NaN
309,1641591329565,undefined,NaN
310,1641591329611,undefined,NaN
311,1641591329904,undefined,NaN
312,1641591329950,undefined,NaN
313,1641591330632,1641591330765,133
314,1641591330834,1641591330843,9
315,1641591331484,1641591331495,11
316,1641591331530,1641591331541,11
317,1641591331889,1641591331900,11
318,1641591332372,1641591332383,11
319,1641591334666,1641591334679,13
320,1641591335892,1641591335904,12
321,1641591336047,1641591336056,9
322,1641591336094,1641591336104,10
323,1641591336463,1641591336878,415
324,1641591336510,1641591336930,420
325,1641591336634,undefined,NaN
326,1641591337099,1641591337110,11
327,1641591337146,1641591337157,11
328,1641591337239,1641591337249,10
329,1641591337536,1641591337547,11
330,1641591337599,1641591337609,10
331,1641591337954,1641591340718,2764
332,1641591338325,undefined,NaN
333,1641591338448,undefined,NaN
334,1641591338821,undefined,NaN
335,1641591339024,undefined,NaN
336,1641591339119,undefined,NaN
337,1641591339896,undefined,NaN
338,1641591340173,1641591340771,598
339,1641591340450,undefined,NaN
340,1641591340543,undefined,NaN
341,1641591340713,undefined,NaN
342,1641591341937,1641591341948,11
343,1641591343828,1641591343839,11
344,1641591344167,1641591344177,10
345,1641591344307,1641591344317,10
346,1641591344465,1641591344473,8
347,1641591344558,1641591344568,10
348,1641591345669,1641591345880,211
349,1641591346246,1641591346261,15
350,1641591347918,1641591350668,2750
351,1641591348464,undefined,NaN
352,1641591348572,undefined,NaN
353,1641591349579,1641591350735,1156
354,1641591349688,undefined,NaN
355,1641591350091,undefined,NaN
356,1641591350122,undefined,NaN
357,1641591350772,1641591350780,8
358,1641591352399,1641591352426,27
359,1641591354216,1641591354226,10
360,1641591354786,1641591354798,12
361,1641591354944,1641591354952,8
362,1641591355477,1641591355486,9
363,1641591356047,1641591356057,10
364,1641591356234,1641591356245,11
365,1641591357728,1641591357739,11
366,1641591358090,1641591360738,2648
367,1641591358957,undefined,NaN
368,1641591359406,undefined,NaN
369,1641591359454,undefined,NaN
370,1641591359718,undefined,NaN
371,1641591359997,1641591360798,801
372,1641591360089,undefined,NaN
373,1641591360215,undefined,NaN
374,1641591361085,1641591361095,10
375,1641591362666,1641591362677,11
376,1641591362696,1641591362706,10
377,1641591363054,1641591363064,10
378,1641591363192,1641591363201,9
379,1641591364679,1641591364690,11
380,1641591365095,1641591365106,11
381,1641591365265,1641591365276,11
382,1641591366677,1641591366689,12
383,1641591367941,1641591370973,3032
384,1641591368019,undefined,NaN
385,1641591369387,1641591371031,1644
386,1641591369464,undefined,NaN
387,1641591369711,undefined,NaN
388,1641591370598,undefined,NaN
389,1641591371717,1641591371728,11
390,1641591371779,1641591371791,12
391,1641591373561,1641591373572,11
392,1641591374681,1641591374692,11
393,1641591374712,1641591374723,11
394,1641591374773,1641591374785,12
395,1641591374976,1641591374986,10
396,1641591375161,1641591375172,11
397,1641591375208,1641591375219,11
398,1641591375364,1641591375375,11
399,1641591375488,1641591375498,10
400,1641591376237,1641591376248,11
401,1641591376484,1641591376495,11
402,1641591376545,1641591376555,10
403,1641591377166,1641591377176,10
404,1641591377785,1641591377796,11
405,1641591378630,1641591380760,2130
406,1641591378693,undefined,NaN
407,1641591378847,undefined,NaN
408,1641591380024,1641591380808,784
409,1641591381903,1641591381914,11
410,1641591382182,1641591382193,11
411,1641591382305,1641591382313,8
412,1641591383715,1641591383726,11
413,1641591384003,1641591384014,11
414,1641591384131,1641591384142,11
415,1641591384505,1641591384520,15
416,1641591384552,1641591384563,11
417,1641591385035,1641591385046,11
418,1641591385190,1641591385205,15
419,1641591385825,1641591385841,16
420,1641591385965,1641591385975,10
421,1641591386554,1641591386566,12
422,1641591387419,1641591387430,11
423,1641591387512,1641591387567,55
424,1641591388364,1641591390771,2407
425,1641591388736,undefined,NaN
426,1641591388938,undefined,NaN
427,1641591389064,undefined,NaN
428,1641591389298,undefined,NaN
429,1641591389636,undefined,NaN
430,1641591390130,undefined,NaN
431,1641591390421,undefined,NaN
432,1641591390761,1641591390829,68
433,1641591390792,1641591391289,497
434,1641591391273,1641591391299,26
435,1641591391726,1641591391737,11
436,1641591392365,1641591392376,11
437,1641591393081,1641591393091,10
438,1641591394960,1641591394971,11
439,1641591395735,1641591395747,12
440,1641591396394,1641591396404,10
441,1641591396658,1641591396669,11
442,1641591397356,1641591397368,12
443,1641591397741,1641591397752,11
444,1641591399271,1641591400769,1498
445,1641591399455,undefined,NaN
446,1641591399874,undefined,NaN
447,1641591400356,1641591400820,464
448,1641591400465,undefined,NaN
449,1641591401679,1641591401689,10
450,1641591401787,1641591401796,9
451,1641591401802,1641591401811,9
453,1641591402339,1641591402349,10
454,1641591403949,1641591404034,85
455,1641591405048,1641591405059,11
456,1641591406383,1641591406394,11
457,1641591406461,1641591406494,33
458,1641591406568,1641591406579,11
459,1641591407151,1641591407396,245
460,1641591407336,1641591407406,70
461,1641591407491,1641591407500,9
462,1641591408190,1641591410570,2380
463,1641591408206,undefined,NaN
464,1641591409015,undefined,NaN
465,1641591409231,undefined,NaN
466,1641591410377,undefined,NaN
467,1641591410788,1641591410799,11
468,1641591410805,1641591410814,9
469,1641591411068,1641591411081,13
470,1641591411450,1641591411461,11
471,1641591411513,1641591411522,9
472,1641591411777,1641591411787,10
473,1641591412549,1641591412558,9
474,1641591412766,1641591412774,8
475,1641591412797,1641591412805,8
476,1641591414161,1641591414172,11
477,1641591414378,1641591414389,11
478,1641591414610,1641591414621,11
479,1641591414621,1641591414630,9
480,1641591415236,1641591415758,522
481,1641591416011,1641591416022,11
482,1641591416844,1641591416858,14
483,1641591417655,1641591417670,15
484,1641591417825,1641591420783,2958
485,1641591418416,1641591420792,2376
486,1641591418479,undefined,NaN
487,1641591418710,undefined,NaN
488,1641591418788,undefined,NaN
489,1641591421267,1641591421278,11
490,1641591421375,1641591421384,9
491,1641591421776,1641591421787,11
492,1641591421994,1641591422004,10
493,1641591423029,1641591423040,11
494,1641591423324,1641591423342,18
495,1641591423584,1641591423595,11
496,1641591423647,1641591423665,18
497,1641591423662,1641591423672,10
498,1641591424189,1641591424200,11
499,1641591424360,1641591424371,11
500,1641591424421,1641591424431,10
501,1641591425181,1641591425192,11
502,1641591425647,1641591425658,11
503,1641591427219,1641591427234,15
504,1641591427685,1641591427697,12
505,1641591428672,1641591430650,1978
506,1641591428857,undefined,NaN
507,1641591430055,1641591430700,645
508,1641591430350,undefined,NaN
509,1641591430723,1641591430732,9
510,1641591430893,1641591430904,11
511,1641591430955,1641591430967,12
512,1641591430967,1641591430976,9
513,1641591431176,1641591431187,11
514,1641591433546,1641591433557,11
515,1641591433671,1641591433681,10
516,1641591433955,1641591433965,10
517,1641591434459,1641591434470,11
518,1641591434729,1641591434741,12
519,1641591435481,1641591435491,10
520,1641591435528,1641591435539,11
521,1641591435621,1641591435631,10
522,1641591435934,1641591435944,10
523,1641591435996,1641591436005,9
524,1641591436026,1641591436037,11
525,1641591437440,1641591437452,12
526,1641591437597,1641591437610,13
527,1641591438124,1641591440819,2695
528,1641591438436,undefined,NaN
529,1641591438655,undefined,NaN
530,1641591438982,undefined,NaN
531,1641591439842,undefined,NaN
532,1641591441573,1641591441584,11
533,1641591443227,1641591443237,10
534,1641591444130,1641591444141,11
535,1641591444584,1641591444595,11
536,1641591445386,1641591445400,14
537,1641591446385,1641591446401,16
538,1641591446431,1641591446442,11
539,1641591446834,1641591446844,10
540,1641591447376,1641591447387,11
541,1641591447531,1641591447544,13
542,1641591447700,1641591447711,11
543,1641591448165,1641591450816,2651
544,1641591448368,undefined,NaN
545,1641591448446,undefined,NaN
546,1641591450531,1641591450878,347
547,1641591452048,1641591452066,18
548,1641591452812,1641591453336,524
549,1641591453120,1641591453349,229
550,1641591453370,1641591453384,14
551,1641591453555,1641591453566,11
552,1641591453861,1641591453872,11
553,1641591455329,1641591455339,10
554,1641591455592,1641591455604,12
555,1641591455733,1641591455743,10
556,1641591458030,1641591460815,2785
557,1641591458512,undefined,NaN
558,1641591460018,1641591460820,802
559,1641591460110,undefined,NaN
560,1641591460218,1641591460827,609
561,1641591460543,undefined,NaN
562,1641591460775,undefined,NaN
563,1641591461527,1641591461618,91
564,1641591461696,1641591462235,539
565,1641591463299,1641591463309,10
566,1641591463314,1641591463323,9
567,1641591463591,1641591463602,11
568,1641591464229,1641591464240,11
569,1641591464369,1641591464381,12
570,1641591464447,1641591464456,9
571,1641591464851,1641591464932,81
572,1641591465160,1641591465478,318
573,1641591465906,1641591465916,10
574,1641591467588,1641591467599,11
575,1641591467791,1641591467801,10
576,1641591468084,1641591470839,2755
577,1641591468395,undefined,NaN
578,1641591468815,undefined,NaN
579,1641591469203,undefined,NaN
580,1641591469559,undefined,NaN
581,1641591469698,undefined,NaN
582,1641591469729,undefined,NaN
583,1641591470212,1641591470915,703
584,1641591471752,1641591471764,12
585,1641591473781,1641591473791,10
586,1641591473982,1641591473991,9
587,1641591474725,1641591474738,13
588,1641591474865,1641591474880,15
589,1641591475005,1641591475014,9
590,1641591475036,1641591475046,10
591,1641591475082,1641591475106,24
592,1641591475330,1641591475368,38
593,1641591475626,1641591475663,37
594,1641591476250,1641591476262,12
595,1641591476624,1641591476634,10
596,1641591476654,1641591476676,22
597,1641591478559,1641591480837,2278
598,1641591478622,undefined,NaN
599,1641591479028,undefined,NaN
600,1641591479324,undefined,NaN
601,1641591480118,undefined,NaN
602,1641591480425,undefined,NaN
604,1641591482196,1641591482205,9
605,1641591482200,1641591482216,16
606,1641591482478,1641591482489,11
607,1641591483084,1641591483095,11
608,1641591483436,1641591483447,11
609,1641591483499,1641591483511,12
610,1641591484474,1641591484585,111
611,1641591484818,1641591484830,12
612,1641591484849,1641591484862,13
613,1641591485812,1641591485824,12
614,1641591487152,1641591487230,78
615,1641591488036,1641591490842,2806
616,1641591488190,undefined,NaN
617,1641591488855,undefined,NaN
618,1641591488965,undefined,NaN
619,1641591490069,undefined,NaN
620,1641591490737,1641591490899,162
621,1641591491378,1641591491390,12
622,1641591492107,1641591492120,13
623,1641591492386,1641591492397,11
624,1641591492805,1641591492816,11
625,1641591493551,1641591493563,12
626,1641591493998,1641591494009,11
627,1641591494854,1641591494865,11
628,1641591495009,1641591495020,11
629,1641591495794,1641591495861,67
630,1641591496152,1641591496163,11
631,1641591496988,1641591496998,10
632,1641591501661,1641591501671,10
633,1641591503746,1641591503765,19
634,1641591504022,1641591504032,10
635,1641591504193,1641591504204,11
636,1641591504907,1641591504918,11
637,1641591505154,1641591505165,11
638,1641591505636,1641591505646,10
639,1641591505883,1641591505894,11
640,1641591506730,1641591506741,11
641,1641591508002,1641591510904,2902
642,1641591508096,undefined,NaN
643,1641591508660,undefined,NaN
644,1641591509764,undefined,NaN
645,1641591510789,1641591510952,163
646,1641591511100,1641591511111,11
647,1641591511164,1641591511174,10
648,1641591511210,1641591511228,18
649,1641591511303,1641591511332,29
650,1641591513996,1641591514007,11
651,1641591514213,1641591514224,11
652,1641591515232,1641591515242,10
653,1641591515852,1641591515862,10
654,1641591518046,1641591520868,2822
655,1641591518666,undefined,NaN
656,1641591519174,undefined,NaN
657,1641591519314,undefined,NaN
658,1641591520260,1641591520916,656
659,1641591520817,undefined,NaN
660,1641591520916,1641591520925,9
661,1641591522975,1641591522986,11
662,1641591523223,1641591523240,17
663,1641591524062,1641591524073,11
664,1641591524386,1641591524397,11
665,1641591525097,1641591525108,11
666,1641591525392,1641591525403,11
667,1641591525562,1641591525573,11
668,1641591526431,1641591526442,11
669,1641591526710,1641591526722,12
670,1641591526721,1641591526731,10
671,1641591527160,1641591527171,11
672,1641591527221,1641591527251,30
673,1641591528117,1641591530844,2727
674,1641591528876,undefined,NaN
675,1641591529510,undefined,NaN
676,1641591529681,undefined,NaN
677,1641591530791,1641591530898,107
678,1641591530978,1641591530989,11
679,1641591531149,1641591531161,12
680,1641591531692,1641591531779,87
681,1641591532049,1641591532065,16
682,1641591532483,1641591532494,11
683,1641591532822,1641591532837,15
684,1641591533054,1641591533070,16
685,1641591533116,1641591533129,13
686,1641591533811,1641591533823,12
687,1641591534337,1641591534348,11
688,1641591534878,1641591534890,12
689,1641591535186,1641591535463,277
690,1641591536512,1641591536523,11
691,1641591536543,1641591536552,9
692,1641591536667,1641591536679,12
693,1641591536974,1641591536986,12
694,1641591538529,1641591540896,2367
695,1641591538683,undefined,NaN
696,1641591539039,undefined,NaN
697,1641591540187,undefined,NaN
698,1641591540248,undefined,NaN
699,1641591540464,undefined,NaN
700,1641591540620,undefined,NaN
701,1641591540886,1641591540955,69
702,1641591541291,1641591541302,11
703,1641591542802,1641591542813,11
704,1641591543870,1641591544498,628
705,1641591543950,undefined,NaN
706,1641591544214,1641591544510,296
707,1641591545692,1641591545704,12
708,1641591545854,1641591545864,10
709,1641591546480,1641591546491,11
710,1641591547656,1641591547667,11
711,1641591547747,1641591547758,11
712,1641591548709,1641591550497,1788
713,1641591548856,undefined,NaN
714,1641591549352,undefined,NaN
715,1641591549415,undefined,NaN
716,1641591550336,1641591550544,208
717,1641591550705,1641591550716,11
718,1641591551230,1641591551241,11
719,1641591551404,1641591551420,16
720,1641591551943,1641591551954,11
721,1641591552721,1641591552733,12
722,1641591552984,1641591553008,24
723,1641591553329,1641591553338,9
724,1641591553709,1641591553720,11
725,1641591553818,1641591553827,9
726,1641591554219,1641591554230,11
727,1641591554461,1641591554472,11
728,1641591555122,1641591555251,129
729,1641591556130,1641591556140,10
730,1641591557509,1641591557520,11
731,1641591558111,1641591560503,2392
732,1641591558934,undefined,NaN
733,1641591559369,undefined,NaN
734,1641591559556,undefined,NaN
735,1641591562024,1641591562035,11
736,1641591562470,1641591562482,12
737,1641591562685,1641591562696,11
738,1641591563419,1641591563443,24
739,1641591563657,1641591563667,10
740,1641591564539,1641591564549,10
741,1641591564659,1641591564667,8
742,1641591564950,1641591564960,10
743,1641591565719,1641591565728,9
744,1641591566606,1641591566616,10
745,1641591566698,1641591566716,18
746,1641591567380,1641591567392,12
747,1641591567640,1641591567652,12
748,1641591567883,1641591567893,10
749,1641591568144,1641591570496,2352
750,1641591568499,undefined,NaN
751,1641591568558,undefined,NaN
752,1641591568806,undefined,NaN
753,1641591571927,1641591571938,11
755,1641591572451,1641591572473,22
756,1641591573155,1641591573165,10
757,1641591574158,1641591574175,17
758,1641591574243,1641591574263,20
759,1641591574391,1641591574402,11
760,1641591574803,1641591574813,10
761,1641591574829,1641591574838,9
762,1641591575411,1641591575424,13
763,1641591576266,1641591576277,11
764,1641591576280,1641591576290,10
765,1641591576694,1641591576705,11
766,1641591576770,1641591576779,9
767,1641591577538,1641591577549,11
768,1641591577675,1641591577685,10
769,1641591578508,1641591580515,2007
770,1641591578811,undefined,NaN
771,1641591579927,1641591580564,637
772,1641591580051,undefined,NaN
773,1641591580069,undefined,NaN
774,1641591580123,undefined,NaN
775,1641591580403,undefined,NaN
776,1641591581443,1641591581454,11
777,1641591581468,1641591581478,10
778,1641591581722,1641591581733,11
779,1641591582563,1641591582573,10
780,1641591583439,1641591583450,11
781,1641591583539,1641591583548,9
782,1641591583847,1641591583858,11
783,1641591584233,1641591584244,11
784,1641591585057,1641591585069,12
785,1641591585842,1641591585853,11
786,1641591586259,1641591586269,10
787,1641591586310,1641591586319,9
788,1641591586688,1641591586699,11
789,1641591586884,1641591586894,10
790,1641591587543,1641591587554,11
791,1641591587908,1641591590488,2580
792,1641591587937,undefined,NaN
793,1641591588562,undefined,NaN
794,1641591588572,undefined,NaN
795,1641591589806,undefined,NaN
796,1641591590128,1641591590497,369
797,1641591590614,1641591590624,10
798,1641591590840,1641591590852,12
799,1641591591170,1641591591180,10
800,1641591591646,1641591591656,10
801,1641591591850,1641591591860,10
802,1641591592017,1641591592029,12
803,1641591592430,1641591592445,15
804,1641591592895,1641591592906,11
805,1641591593264,1641591593369,105
806,1641591593496,1641591593507,11
807,1641591593519,1641591593529,10
808,1641591593878,1641591593889,11
809,1641591594111,1641591594122,11
810,1641591594237,1641591594247,10
811,1641591596311,1641591596322,11
812,1641591596708,1641591596718,10
813,1641591597612,1641591597625,13
814,1641591597769,1641591597780,11
815,1641591599416,1641591600493,1077
816,1641591600160,undefined,NaN
817,1641591600233,undefined,NaN
818,1641591600349,1641591600541,192
819,1641591600773,1641591600783,10
820,1641591602274,1641591602285,11
821,1641591603103,1641591603114,11
822,1641591603316,1641591603327,11
823,1641591603539,1641591603550,11
824,1641591603974,1641591603986,12
825,1641591604311,1641591604506,195
826,1641591604726,1641591604862,136
827,1641591605235,1641591605245,10
828,1641591605255,1641591605267,12
829,1641591605657,1641591605668,11
830,1641591605777,1641591605786,9
831,1641591606039,1641591606049,10
832,1641591606064,1641591606073,9
833,1641591606165,1641591606173,8
834,1641591606180,1641591606188,8
835,1641591606283,1641591606292,9
836,1641591606409,1641591606419,10
837,1641591606458,1641591606469,11
838,1641591606629,1641591606638,9
839,1641591608442,1641591610497,2055
840,1641591609718,1641591610544,826
841,1641591610676,1641591610687,11
842,1641591610734,1641591610744,10
843,1641591611384,1641591611394,10
844,1641591611493,1641591611503,10
845,1641591612331,1641591612342,11
846,1641591613071,1641591613214,143
847,1641591613142,1641591613377,235
848,1641591613222,1641591613387,165
849,1641591615821,1641591615833,12
850,1641591616656,1641591616723,67
851,1641591616855,1641591616867,12
852,1641591617561,1641591617572,11
853,1641591617723,1641591617736,13
854,1641591617808,1641591617817,9
855,1641591617897,1641591620487,2590
856,1641591618124,1641591620499,2375
857,1641591619516,undefined,NaN
858,1641591619727,undefined,NaN
859,1641591619770,undefined,NaN
860,1641591620272,1641591620547,275
861,1641591627467,1641591627476,9
862,1641591627733,1641591627859,126
863,1641591627870,1641591630489,2619
864,1641591628213,1641591630498,2285
865,1641591628222,undefined,NaN
866,1641591628367,undefined,NaN
867,1641591628683,undefined,NaN
868,1641591629316,1641591630545,1229
869,1641591629383,undefined,NaN
870,1641591630630,1641591630640,10
871,1641591631297,1641591631308,11
872,1641591632765,1641591632783,18
873,1641591632967,1641591632979,12
874,1641591633547,1641591633559,12
875,1641591634118,1641591634160,42
876,1641591634705,1641591634716,11
877,1641591634958,1641591634968,10
878,1641591637288,1641591637300,12
879,1641591637889,1641591637901,12
880,1641591639130,1641591640500,1370
881,1641591639704,undefined,NaN
882,1641591640067,undefined,NaN
883,1641591640813,1641591640824,11
884,1641591640849,1641591640860,11
885,1641591641258,1641591641269,11
886,1641591641904,1641591641915,11
887,1641591642279,1641591642290,11
888,1641591645553,1641591645564,11
889,1641591645942,1641591645957,15
890,1641591646195,1641591646205,10
891,1641591646296,1641591646305,9
892,1641591647072,1641591647127,55
893,1641591647786,1641591647797,11
894,1641591647924,1641591650496,2572
895,1641591649781,undefined,NaN
896,1641591649798,undefined,NaN
897,1641591649980,undefined,NaN
898,1641591649995,undefined,NaN
899,1641591650031,1641591650545,514
900,1641591650114,undefined,NaN
901,1641591650192,undefined,NaN
902,1641591650505,1641591650553,48
903,1641591650601,1641591650609,8
904,1641591650636,1641591650645,9
906,1641591652824,1641591652844,20
907,1641591652912,1641591652921,9
908,1641591653430,1641591653441,11
909,1641591653559,1641591653571,12
910,1641591654055,1641591654065,10
911,1641591654148,1641591654158,10
912,1641591654655,1641591654666,11
913,1641591654779,1641591654805,26
914,1641591655151,1641591655177,26
915,1641591655611,1641591655623,12
916,1641591655892,1641591655902,10
917,1641591656577,1641591656602,25
918,1641591657200,1641591657210,10
919,1641591659323,1641591660498,1175
920,1641591660074,undefined,NaN
921,1641591660387,1641591660547,160
922,1641591660571,1641591660580,9
923,1641591661525,1641591661536,11
924,1641591662580,1641591662589,9
925,1641591662783,1641591662794,11
926,1641591663078,1641591663088,10
927,1641591665575,1641591665586,11
928,1641591665971,1641591665982,11
929,1641591667791,1641591667802,11
930,1641591667859,1641591667871,12
931,1641591668076,1641591670494,2418
932,1641591668440,undefined,NaN
933,1641591668461,undefined,NaN
934,1641591669185,undefined,NaN
935,1641591670069,undefined,NaN
936,1641591670679,1641591670690,11
937,1641591671145,1641591671156,11
938,1641591672372,1641591672397,25
939,1641591672392,1641591672405,13
940,1641591672613,1641591672641,28
941,1641591673206,1641591673216,10
942,1641591673753,1641591673833,80
943,1641591674084,1641591674095,11
944,1641591674176,1641591674186,10
945,1641591674186,1641591674195,9
946,1641591675544,1641591675562,18
947,1641591675757,1641591675768,11
948,1641591676560,1641591676571,11
949,1641591676714,1641591676725,11
950,1641591677811,1641591677822,11
951,1641591679182,1641591680533,1351
952,1641591679195,undefined,NaN
953,1641591679467,undefined,NaN
954,1641591679593,undefined,NaN
955,1641591680415,1641591680581,166
956,1641591680562,1641591680592,30
957,1641591681028,1641591681039,11
958,1641591681136,1641591681146,10
959,1641591681268,1641591681279,11
960,1641591681310,1641591681321,11
961,1641591682063,1641591682074,11
962,1641591682187,1641591682196,9
963,1641591682418,1641591682429,11
964,1641591683010,1641591683021,11
965,1641591683082,1641591683102,20
966,1641591683180,1641591683190,10
967,1641591683984,1641591683997,13
968,1641591684293,1641591684304,11
969,1641591684295,1641591684314,19
970,1641591684589,1641591684606,17
971,1641591684770,1641591685158,388
972,1641591684852,undefined,NaN
973,1641591685247,1641591685256,9
974,1641591685463,1641591685489,26
975,1641591687145,1641591687158,13
976,1641591687643,1641591687654,11
977,1641591687878,1641591687889,11
978,1641591688778,1641591690524,1746
979,1641591688998,undefined,NaN
980,1641591689237,undefined,NaN
981,1641591689384,undefined,NaN
982,1641591689431,undefined,NaN
983,1641591689448,undefined,NaN
984,1641591690070,1641591690571,501
985,1641591690157,undefined,NaN
986,1641591690396,undefined,NaN
987,1641591690791,1641591690816,25
988,1641591690873,1641591690881,8
989,1641591692113,1641591692122,9
990,1641591693223,1641591693276,53
991,1641591693906,1641591693918,12
992,1641591696045,1641591696161,116
993,1641591696219,1641591696491,272
994,1641591696248,1641591696501,253
995,1641591696758,1641591696774,16
996,1641591696975,1641591696986,11
997,1641591697728,1641591697739,11
998,1641591698228,1641591700507,2279
999,1641591698250,undefined,NaN
1000,1641591698422,undefined,NaN
1001,1641591698636,1641591700555,1919
1002,1641591699590,undefined,NaN
1003,1641591699819,undefined,NaN
1004,1641591700225,undefined,NaN
1005,1641591702027,1641591702038,11
1006,1641591703114,1641591703125,11
1007,1641591703865,1641591703877,12
1008,1641591705507,1641591705518,11
1009,1641591705882,1641591705895,13
1010,1641591706422,1641591706433,11
1011,1641591706574,1641591706584,10
1012,1641591706648,1641591706663,15
1013,1641591707226,1641591707720,494
1014,1641591707575,undefined,NaN
1015,1641591708387,1641591710491,2104
1016,1641591708469,undefined,NaN
1017,1641591708510,undefined,NaN
1018,1641591708711,undefined,NaN
1019,1641591708958,undefined,NaN
1020,1641591709199,undefined,NaN
1021,1641591709518,undefined,NaN
1022,1641591709671,undefined,NaN
1023,1641591709756,undefined,NaN
1024,1641591709760,undefined,NaN
1025,1641591710378,1641591710540,162
1026,1641591710457,undefined,NaN
1027,1641591710534,1641591710550,16
1028,1641591711074,1641591711084,10
1029,1641591712279,1641591712290,11
1030,1641591712551,1641591712562,11
1031,1641591712645,1641591712671,26
1032,1641591713391,1641591713403,12
1033,1641591714294,1641591714306,12
1034,1641591715326,1641591715337,11
1035,1641591716181,1641591716281,100
1036,1641591716755,1641591716767,12
1037,1641591716756,1641591716776,20
1038,1641591717968,1641591720493,2525
1039,1641591719142,1641591720540,1398
1040,1641591719482,undefined,NaN
1041,1641591719850,undefined,NaN
1042,1641591720720,1641591720734,14
1043,1641591720971,1641591720982,11
1044,1641591721886,1641591721897,11
1045,1641591722761,1641591722771,10
1046,1641591723897,1641591723908,11
1047,1641591724009,1641591724018,9
1048,1641591724250,1641591724261,11
1049,1641591724267,1641591724277,10
1050,1641591724440,1641591724451,11
1051,1641591724780,1641591724792,12
1052,1641591725121,1641591725138,17
1053,1641591725275,1641591725286,11
1054,1641591725922,1641591725933,11
1055,1641591726047,1641591726056,9
1057,1641591727563,undefined,NaN
1058,1641591728099,1641591728237,138
1059,1641591728682,1641591728693,11
1060,1641591728943,1641591728956,13
1061,1641591729261,1641591729272,11
1062,1641591729323,1641591729333,10
1063,1641591729727,1641591729740,13
1064,1641591730777,1641591731453,676
1065,1641591730996,1641591731461,465
1066,1641591731273,1641591731509,236
1067,1641591731751,1641591731762,11
1068,1641591732828,1641591732840,12
1069,1641591733018,1641591733028,10
1070,1641591733127,1641591733136,9
1071,1641591733534,1641591733545,11
1072,1641591733692,1641591733704,12
1073,1641591735038,1641591735049,11
1074,1641591735238,1641591735248,10
1075,1641591735258,1641591735267,9
1076,1641591736110,1641591736120,10
1077,1641591736361,1641591736372,11
1078,1641591736630,1641591736640,10
1079,1641591736632,1641591736651,19
1080,1641591736894,1641591736911,17
1081,1641591737462,1641591737470,8
1082,1641591738346,1641591740498,2152
1083,1641591738495,undefined,NaN
1084,1641591738815,undefined,NaN
1085,1641591739053,undefined,NaN
1086,1641591739452,undefined,NaN
1087,1641591739519,undefined,NaN
1088,1641591739905,undefined,NaN
1089,1641591740173,undefined,NaN
1090,1641591740505,1641591740522,17
1091,1641591740556,1641591740570,14
1092,1641591740698,1641591740709,11
1093,1641591741691,1641591741701,10
1094,1641591742271,1641591742282,11
1095,1641591742309,1641591742320,11
1096,1641591744243,1641591744254,11
1097,1641591746558,1641591746567,9
1098,1641591746660,1641591746669,9
1099,1641591747854,1641591747864,10
1100,1641591748232,1641591750492,2260
1101,1641591748697,undefined,NaN
1102,1641591749567,undefined,NaN
1103,1641591749943,undefined,NaN
1104,1641591750024,undefined,NaN
1105,1641591750150,undefined,NaN
1106,1641591751062,1641591751074,12
1107,1641591751416,1641591751582,166
1108,1641591751628,1641591751944,316
1109,1641591752132,1641591752141,9
1110,1641591752835,1641591752862,27
1111,1641591754219,1641591754229,10
1112,1641591754701,1641591755012,311
1113,1641591755052,1641591755062,10
1114,1641591755467,1641591755476,9
1115,1641591756350,1641591756361,11
1116,1641591756766,1641591756777,11
1117,1641591757037,1641591757047,10
1118,1641591757209,1641591757234,25
1119,1641591757393,1641591757403,10
1120,1641591759982,1641591760524,542
1121,1641591760860,1641591760870,10
1122,1641591761928,1641591761938,10
1123,1641591762123,1641591762148,25
1124,1641591762656,1641591762668,12
1125,1641591763593,1641591763646,53
1126,1641591765222,1641591765233,11
1127,1641591766843,1641591767141,298
1128,1641591766930,1641591767154,224
1129,1641591767539,1641591767550,11
1130,1641591767603,1641591767614,11
1131,1641591767683,1641591767693,10
1132,1641591767877,1641591767886,9
1133,1641591768694,1641591770536,1842
1134,1641591768773,undefined,NaN
1135,1641591768849,undefined,NaN
1136,1641591769839,1641591770582,743
1137,1641591769841,undefined,NaN
1138,1641591769938,undefined,NaN
1139,1641591771190,1641591771201,11
1140,1641591771632,1641591771645,13
1141,1641591772605,1641591772616,11
1142,1641591772662,1641591772673,11
1143,1641591772704,1641591772713,9
1144,1641591773107,1641591773125,18
1145,1641591773224,1641591773243,19
1146,1641591773308,1641591773318,10
1147,1641591774380,1641591774391,11
1148,1641591775375,1641591775386,11
1149,1641591775745,1641591775757,12
1150,1641591777757,1641591777768,11
1151,1641591777992,1641591780491,2499
1152,1641591778094,undefined,NaN
1153,1641591778208,undefined,NaN
1154,1641591778282,undefined,NaN
1155,1641591778502,undefined,NaN
1156,1641591778853,undefined,NaN
1157,1641591778972,undefined,NaN
1158,1641591779037,undefined,NaN
1159,1641591781044,1641591781058,14
1160,1641591781060,1641591781069,9
1161,1641591781323,1641591781337,14
1162,1641591781891,1641591781901,10
1163,1641591782693,1641591782705,12
1164,1641591782695,1641591782714,19
1165,1641591783234,1641591783245,11
1166,1641591783470,1641591783481,11
1167,1641591784076,1641591784087,11
1168,1641591784134,1641591784145,11
1169,1641591784189,1641591784199,10
1170,1641591785068,1641591785080,12
1171,1641591785303,1641591785314,11
1172,1641591785339,1641591785350,11
1173,1641591785490,1641591785506,16
1174,1641591787332,1641591787343,11
1175,1641591787528,1641591787539,11
1176,1641591787727,1641591787738,11
1177,1641591787976,1641591790496,2520
1178,1641591788359,undefined,NaN
1179,1641591788523,undefined,NaN
1180,1641591788940,undefined,NaN
1181,1641591789033,undefined,NaN
1182,1641591789280,undefined,NaN
1183,1641591789429,undefined,NaN
1184,1641591789757,undefined,NaN
1185,1641591789985,undefined,NaN
1186,1641591790022,undefined,NaN
1187,1641591790221,1641591790543,322
1188,1641591791797,1641591791807,10
1189,1641591792350,1641591792361,11
1190,1641591793122,1641591793134,12
1191,1641591793836,1641591793847,11
1192,1641591794680,1641591794691,11
1193,1641591795400,1641591795412,12
1194,1641591795735,1641591795746,11
1195,1641591796214,1641591796225,11
1196,1641591796549,1641591796560,11
1197,1641591796773,1641591796785,12
1198,1641591797282,1641591797432,150
1199,1641591797442,1641591797647,205
1200,1641591797987,1641591800811,2824
1201,1641591798761,undefined,NaN
1202,1641591798785,undefined,NaN
1203,1641591799157,undefined,NaN
1204,1641591799867,undefined,NaN
1205,1641591800061,undefined,NaN
1206,1641591801220,1641591801231,11
