0,1641587980295,1641587980428,133
1,1641587981899,1641587981905,6
2,1641587983285,1641587983295,10
3,1641587983504,1641587983516,12
4,1641587984355,1641587984362,7
5,1641587984743,1641587984750,7
6,1641587984798,1641587984806,8
7,1641587984837,1641587984847,10
8,1641587985283,1641587985290,7
9,1641587986011,1641587986021,10
10,1641587986974,1641587989198,2224
11,1641587988301,1641587989246,945
12,1641587989344,1641587989351,7
13,1641587989906,1641587989914,8
14,1641587989941,1641587989948,7
15,1641587990002,1641587990015,13
16,1641587990773,1641587990779,6
17,1641587990941,1641587990948,7
18,1641587992315,1641587992323,8
19,1641587992506,1641587992528,22
20,1641587992782,1641587992788,6
21,1641587993535,1641587993542,7
22,1641587993576,1641587993582,6
23,1641587993607,1641587993613,6
24,1641587994108,1641587994115,7
25,1641587994207,1641587994214,7
26,1641587994612,1641587994619,7
27,1641587995872,1641587995881,9
28,1641587996482,1641587996491,9
29,1641587996493,1641587996500,7
30,1641587997036,1641587999195,2159
31,1641587997209,undefined,NaN
32,1641587999110,1641587999241,131
33,1641587999803,1641587999811,8
34,1641588000617,1641588000631,14
35,1641588001455,1641588001463,8
36,1641588001878,1641588001885,7
37,1641588003034,1641588003044,10
38,1641588003930,1641588003940,10
39,1641588003978,1641588003987,9
40,1641588004812,1641588004821,9
41,1641588004996,1641588005004,8
42,1641588005134,1641588005141,7
43,1641588006038,1641588006046,8
44,1641588006851,1641588009196,2345
45,1641588007063,undefined,NaN
46,1641588007151,1641588009240,2089
47,1641588008007,undefined,NaN
48,1641588008180,undefined,NaN
49,1641588008369,undefined,NaN
50,1641588008595,undefined,NaN
51,1641588008803,undefined,NaN
52,1641588008927,undefined,NaN
53,1641588009063,undefined,NaN
54,1641588009446,1641588009454,8
55,1641588009896,1641588009906,10
56,1641588010269,1641588010276,7
57,1641588010889,1641588010896,7
58,1641588011091,1641588011119,28
59,1641588011283,1641588011291,8
60,1641588012453,1641588012461,8
61,1641588012592,1641588012598,6
62,1641588014315,1641588014837,522
63,1641588014370,undefined,NaN
64,1641588014832,1641588014843,11
65,1641588015913,1641588015923,10
66,1641588016585,1641588016593,8
67,1641588016945,1641588019189,2244
68,1641588017203,1641588019233,2030
69,1641588017352,undefined,NaN
70,1641588017677,undefined,NaN
71,1641588017840,undefined,NaN
72,1641588017849,undefined,NaN
73,1641588018029,undefined,NaN
74,1641588018319,undefined,NaN
75,1641588019384,1641588019394,10
76,1641588019693,1641588019701,8
77,1641588020855,1641588020863,8
78,1641588021122,1641588021130,8
79,1641588021156,1641588021163,7
80,1641588022367,1641588022375,8
81,1641588023024,1641588023030,6
82,1641588024484,1641588024492,8
83,1641588024746,1641588024754,8
84,1641588024948,1641588024958,10
85,1641588024976,1641588024983,7
86,1641588025071,1641588025077,6
87,1641588025686,1641588025698,12
88,1641588025875,1641588025886,11
89,1641588026062,1641588026070,8
90,1641588028694,1641588029194,500
91,1641588029380,1641588029388,8
92,1641588029531,1641588029543,12
93,1641588029731,1641588029738,7
94,1641588030024,1641588030032,8
95,1641588030042,1641588030049,7
96,1641588030292,1641588030299,7
97,1641588030975,1641588030983,8
98,1641588031097,1641588031109,12
99,1641588031466,1641588031474,8
100,1641588032102,1641588032110,8
101,1641588032372,1641588032380,8
102,1641588033510,1641588033518,8
103,1641588034496,1641588034504,8
104,1641588034773,1641588034781,8
105,1641588035144,1641588035152,8
106,1641588035408,1641588035416,8
107,1641588035624,1641588035636,12
108,1641588036046,1641588036056,10
109,1641588036545,1641588036552,7
110,1641588036804,1641588039192,2388
111,1641588036873,undefined,NaN
112,1641588038114,1641588039236,1122
113,1641588038575,undefined,NaN
114,1641588038763,undefined,NaN
115,1641588039856,1641588039864,8
116,1641588040120,1641588040128,8
117,1641588040409,1641588040422,13
118,1641588043272,1641588043278,6
119,1641588044079,1641588044089,10
120,1641588044902,1641588044910,8
121,1641588045062,1641588045069,7
122,1641588045077,1641588045091,14
123,1641588045486,1641588045496,10
124,1641588045894,1641588045902,8
125,1641588046741,1641588049762,3021
126,1641588049430,1641588049769,339
127,1641588049547,undefined,NaN
128,1641588050638,1641588050647,9
129,1641588050979,1641588050987,8
130,1641588051086,1641588051092,6
131,1641588051576,1641588051587,11
132,1641588051693,1641588051698,5
133,1641588052515,1641588052523,8
134,1641588052686,1641588052694,8
135,1641588052692,1641588052700,8
136,1641588052832,1641588052838,6
137,1641588053750,1641588053758,8
138,1641588055352,1641588055360,8
139,1641588055375,1641588055407,32
140,1641588055927,1641588055939,12
141,1641588056161,1641588056167,6
142,1641588056434,1641588056442,8
143,1641588056849,1641588059192,2343
144,1641588057052,undefined,NaN
145,1641588057595,1641588059247,1652
146,1641588057605,undefined,NaN
147,1641588057689,undefined,NaN
148,1641588057863,undefined,NaN
149,1641588058254,undefined,NaN
151,1641588058828,undefined,NaN
152,1641588059631,1641588059639,8
153,1641588059908,1641588059916,8
154,1641588060395,1641588060403,8
155,1641588060755,1641588060764,9
156,1641588060769,1641588060777,8
157,1641588060978,1641588060986,8
158,1641588061686,1641588061697,11
159,1641588061775,1641588061781,6
160,1641588062135,1641588062143,8
161,1641588063124,1641588063134,10
162,1641588064871,1641588064879,8
163,1641588064906,1641588064914,8
164,1641588066506,1641588066515,9
165,1641588066741,1641588069190,2449
166,1641588067064,1641588069235,2171
167,1641588067132,undefined,NaN
168,1641588067291,undefined,NaN
169,1641588067994,undefined,NaN
170,1641588068859,undefined,NaN
171,1641588069157,undefined,NaN
172,1641588069234,1641588069243,9
173,1641588069944,1641588069954,10
174,1641588070381,1641588070395,14
175,1641588070822,1641588070830,8
176,1641588071604,1641588071612,8
177,1641588071679,1641588071688,9
178,1641588072137,1641588072147,10
179,1641588072636,1641588072643,7
180,1641588072831,1641588072839,8
181,1641588073164,1641588073172,8
182,1641588073671,1641588073679,8
183,1641588073964,1641588073970,6
184,1641588074533,1641588074540,7
185,1641588074641,1641588074939,298
186,1641588075179,1641588075187,8
187,1641588075766,1641588075774,8
188,1641588076754,1641588079195,2441
189,1641588077165,1641588079239,2074
190,1641588077863,undefined,NaN
191,1641588079165,undefined,NaN
192,1641588080634,1641588080642,8
193,1641588081486,1641588081495,9
194,1641588081643,1641588081651,8
195,1641588081864,1641588081872,8
196,1641588082193,1641588082202,9
197,1641588082626,1641588082634,8
198,1641588083062,1641588083070,8
199,1641588083182,1641588083189,7
200,1641588083498,1641588083508,10
201,1641588084084,1641588084091,7
202,1641588084163,1641588084170,7
203,1641588084909,1641588084917,8
204,1641588087135,1641588089191,2056
205,1641588087137,1641588089235,2098
206,1641588087317,undefined,NaN
207,1641588087332,undefined,NaN
208,1641588087831,undefined,NaN
209,1641588088420,undefined,NaN
210,1641588088847,undefined,NaN
211,1641588089103,undefined,NaN
212,1641588089185,undefined,NaN
213,1641588089224,1641588089242,18
214,1641588089547,1641588089556,9
215,1641588089620,1641588089637,17
216,1641588089784,1641588089792,8
217,1641588089843,1641588089867,24
218,1641588091139,1641588091148,9
219,1641588091982,1641588091990,8
220,1641588092004,1641588092013,9
221,1641588092517,1641588092525,8
222,1641588092542,1641588092550,8
223,1641588092783,1641588092817,34
224,1641588092810,1641588092823,13
225,1641588092927,1641588092935,8
226,1641588093130,1641588093140,10
227,1641588093269,1641588093276,7
228,1641588093339,1641588093346,7
229,1641588093561,1641588093569,8
230,1641588093988,1641588093996,8
231,1641588094481,1641588094490,9
232,1641588094820,1641588094828,8
233,1641588094920,1641588094927,7
234,1641588095279,1641588095286,7
235,1641588095924,1641588095937,13
236,1641588096324,1641588096333,9
237,1641588096408,1641588096415,7
238,1641588096842,1641588099194,2352
239,1641588097407,1641588099239,1832
240,1641588098295,undefined,NaN
241,1641588098462,undefined,NaN
242,1641588098508,undefined,NaN
243,1641588099749,1641588099767,18
244,1641588100614,1641588100628,14
245,1641588101117,1641588101126,9
246,1641588101517,1641588101525,8
247,1641588102107,1641588102120,13
248,1641588102280,1641588102288,8
249,1641588102544,1641588102552,8
250,1641588102827,1641588102835,8
251,1641588103048,1641588103056,8
252,1641588103871,1641588103890,19
253,1641588104190,1641588104199,9
254,1641588104581,1641588104594,13
255,1641588104645,1641588104651,6
256,1641588105615,1641588105622,7
257,1641588106711,1641588109193,2482
258,1641588107011,1641588109240,2229
259,1641588107205,undefined,NaN
260,1641588107401,undefined,NaN
261,1641588108640,undefined,NaN
262,1641588111344,1641588111350,6
263,1641588113181,1641588113188,7
264,1641588113517,1641588113524,7
265,1641588114180,1641588114186,6
266,1641588114266,1641588114279,13
267,1641588114275,1641588114288,13
268,1641588114646,1641588114666,20
269,1641588116703,1641588119190,2487
270,1641588118665,1641588119234,569
271,1641588118781,undefined,NaN
272,1641588119356,1641588119362,6
273,1641588119407,1641588119414,7
274,1641588119607,1641588119613,6
275,1641588119795,1641588119801,6
276,1641588120128,1641588120143,15
277,1641588120497,1641588120516,19
278,1641588120646,1641588120653,7
279,1641588120672,1641588120680,8
280,1641588121914,1641588121921,7
281,1641588122802,1641588122809,7
282,1641588124144,1641588124153,9
283,1641588124625,1641588124652,27
284,1641588124966,1641588124972,6
285,1641588125481,1641588125506,25
286,1641588126145,1641588126151,6
287,1641588126238,1641588126243,5
288,1641588127419,1641588129197,1778
289,1641588127773,1641588129242,1469
290,1641588127995,undefined,NaN
291,1641588128079,undefined,NaN
292,1641588128206,undefined,NaN
293,1641588129098,undefined,NaN
294,1641588129357,1641588129365,8
295,1641588129406,1641588129417,11
296,1641588129716,1641588129723,7
297,1641588130790,1641588130797,7
298,1641588131352,1641588131366,14
299,1641588132119,1641588132127,8
300,1641588132833,1641588132842,9
302,1641588132976,1641588132994,18
303,1641588133489,1641588133497,8
304,1641588133683,1641588133691,8
305,1641588133771,1641588133778,7
306,1641588135053,1641588135061,8
307,1641588135163,1641588135169,6
308,1641588135188,1641588135194,6
309,1641588135753,1641588135762,9
310,1641588136138,1641588136146,8
311,1641588136207,1641588136217,10
312,1641588137234,1641588139197,1963
313,1641588138128,1641588139245,1117
314,1641588138471,undefined,NaN
315,1641588139188,undefined,NaN
316,1641588139370,1641588139378,8
317,1641588140443,1641588140451,8
318,1641588140447,1641588140462,15
319,1641588140479,1641588140486,7
320,1641588140564,1641588140578,14
321,1641588140771,1641588140785,14
322,1641588141283,1641588141297,14
323,1641588141288,1641588141306,18
324,1641588141534,1641588141542,8
325,1641588142832,1641588142840,8
326,1641588143170,1641588143177,7
327,1641588143267,1641588143274,7
328,1641588143503,1641588143512,9
329,1641588144004,1641588144016,12
330,1641588144205,1641588144218,13
331,1641588144207,1641588144232,25
332,1641588144825,1641588144833,8
333,1641588145316,1641588145324,8
334,1641588145960,1641588145968,8
335,1641588146335,1641588146345,10
336,1641588146939,1641588149197,2258
337,1641588147118,undefined,NaN
338,1641588147374,1641588149242,1868
339,1641588147428,undefined,NaN
340,1641588148264,undefined,NaN
341,1641588149106,undefined,NaN
342,1641588150670,1641588150677,7
343,1641588150843,1641588150854,11
344,1641588150846,1641588150860,14
345,1641588151003,1641588151011,8
346,1641588151042,1641588151050,8
347,1641588151574,1641588151582,8
348,1641588151705,1641588151713,8
349,1641588151955,1641588151962,7
350,1641588152013,1641588152021,8
351,1641588152394,1641588152402,8
352,1641588152429,1641588152439,10
353,1641588153356,1641588153365,9
354,1641588153862,1641588153870,8
355,1641588154322,1641588154329,7
356,1641588155130,1641588155138,8
357,1641588156257,1641588156266,9
358,1641588156377,1641588156385,8
359,1641588156482,1641588156487,5
360,1641588157184,1641588159200,2016
361,1641588157334,1641588159259,1925
362,1641588159195,undefined,NaN
363,1641588159283,1641588159290,7
364,1641588160137,1641588160143,6
365,1641588160215,1641588160221,6
366,1641588160325,1641588160331,6
367,1641588160467,1641588160475,8
368,1641588160749,1641588160757,8
369,1641588161473,1641588161480,7
370,1641588162290,1641588162299,9
371,1641588163234,1641588163242,8
372,1641588163450,1641588163459,9
373,1641588164076,1641588164083,7
374,1641588164144,1641588164151,7
375,1641588164608,1641588164617,9
376,1641588164758,1641588164772,14
377,1641588164914,1641588164924,10
378,1641588165001,1641588165011,10
379,1641588165235,1641588165250,15
380,1641588165552,1641588165559,7
381,1641588167116,1641588169192,2076
382,1641588168563,1641588169237,674
383,1641588168682,undefined,NaN
384,1641588168951,undefined,NaN
385,1641588169022,undefined,NaN
386,1641588169163,undefined,NaN
387,1641588169172,undefined,NaN
388,1641588169228,1641588169259,31
389,1641588169889,1641588169898,9
390,1641588170206,1641588170214,8
391,1641588170527,1641588170535,8
392,1641588170731,1641588170746,15
393,1641588170992,1641588170999,7
394,1641588172053,1641588172061,8
395,1641588172200,1641588172207,7
396,1641588172364,1641588172386,22
397,1641588172957,1641588172963,6
398,1641588174030,1641588174036,6
399,1641588174916,1641588174924,8
400,1641588175308,1641588175319,11
401,1641588175634,1641588175642,8
402,1641588175667,1641588175676,9
403,1641588176136,1641588176144,8
404,1641588176169,1641588176178,9
405,1641588176545,1641588176555,10
406,1641588176640,1641588176650,10
407,1641588177112,1641588179287,2175
408,1641588177346,undefined,NaN
409,1641588178639,1641588179292,653
410,1641588179418,1641588179426,8
411,1641588179896,1641588179904,8
412,1641588180505,1641588180515,10
413,1641588180588,1641588180594,6
414,1641588180624,1641588180630,6
415,1641588181815,1641588181825,10
416,1641588182338,1641588182345,7
417,1641588182564,1641588182572,8
418,1641588182665,1641588182672,7
419,1641588182788,1641588182794,6
420,1641588183392,1641588183400,8
421,1641588183483,1641588183491,8
422,1641588183605,1641588183617,12
423,1641588185001,1641588185009,8
424,1641588185854,1641588185867,13
425,1641588185941,1641588185948,7
426,1641588186361,1641588186368,7
427,1641588186736,1641588189195,2459
428,1641588187180,1641588189239,2059
429,1641588187506,undefined,NaN
430,1641588187784,undefined,NaN
431,1641588188438,undefined,NaN
432,1641588191369,1641588191377,8
433,1641588192235,1641588192256,21
434,1641588192434,1641588192440,6
435,1641588192478,1641588192485,7
436,1641588192921,1641588192928,7
437,1641588193750,1641588193757,7
438,1641588193766,1641588193773,7
439,1641588193921,1641588193930,9
440,1641588193952,1641588193960,8
441,1641588194519,1641588194526,7
442,1641588194965,1641588194972,7
443,1641588196374,1641588196381,7
444,1641588197115,1641588199191,2076
445,1641588197415,1641588199236,1821
446,1641588197601,undefined,NaN
447,1641588198055,undefined,NaN
448,1641588198348,undefined,NaN
449,1641588198393,undefined,NaN
450,1641588199835,1641588199842,7
451,1641588200736,1641588200744,8
453,1641588202875,1641588202888,13
454,1641588203507,1641588203516,9
455,1641588203703,1641588203712,9
456,1641588203910,1641588203917,7
457,1641588206061,1641588206068,7
458,1641588206453,1641588206460,7
459,1641588206821,1641588209188,2367
460,1641588207011,1641588209207,2196
461,1641588207150,undefined,NaN
462,1641588207897,undefined,NaN
463,1641588208150,undefined,NaN
464,1641588208273,undefined,NaN
465,1641588208360,undefined,NaN
466,1641588208618,undefined,NaN
467,1641588208657,undefined,NaN
468,1641588208832,undefined,NaN
469,1641588209202,1641588209252,50
470,1641588209801,1641588209814,13
471,1641588209914,1641588209924,10
472,1641588210472,1641588210480,8
473,1641588210933,1641588210940,7
474,1641588211102,1641588211109,7
475,1641588211833,1641588211843,10
476,1641588212015,1641588212024,9
477,1641588212300,1641588212308,8
478,1641588212817,1641588212825,8
479,1641588212847,1641588212855,8
480,1641588213429,1641588213436,7
481,1641588214184,1641588214192,8
482,1641588214265,1641588214281,16
483,1641588214709,1641588214717,8
484,1641588214749,1641588214771,22
485,1641588215709,1641588215715,6
486,1641588215721,1641588215728,7
487,1641588215868,1641588215879,11
488,1641588216323,1641588216331,8
489,1641588217000,1641588219191,2191
490,1641588217870,1641588219194,1324
491,1641588218132,1641588219197,1065
492,1641588218376,undefined,NaN
493,1641588219052,undefined,NaN
494,1641588219770,1641588219778,8
495,1641588219891,1641588219897,6
496,1641588220413,1641588220421,8
497,1641588220864,1641588220872,8
498,1641588220929,1641588220938,9
499,1641588220947,1641588220957,10
500,1641588221049,1641588221055,6
501,1641588221733,1641588221741,8
502,1641588223071,1641588223083,12
503,1641588223577,1641588223585,8
504,1641588223799,1641588223807,8
505,1641588224417,1641588224425,8
506,1641588224500,1641588224802,302
507,1641588224770,1641588224849,79
508,1641588225089,1641588225098,9
509,1641588225970,1641588225981,11
510,1641588226742,1641588229198,2456
511,1641588226781,undefined,NaN
512,1641588227292,1641588229242,1950
513,1641588227374,undefined,NaN
514,1641588228522,undefined,NaN
515,1641588229143,undefined,NaN
516,1641588230083,1641588230091,8
517,1641588231232,1641588231239,7
518,1641588233096,1641588233105,9
519,1641588233452,1641588233465,13
520,1641588233905,1641588233913,8
521,1641588233930,1641588233937,7
522,1641588235145,1641588235153,8
523,1641588235227,1641588235232,5
524,1641588236844,1641588239195,2351
525,1641588236877,undefined,NaN
526,1641588236938,undefined,NaN
527,1641588237102,1641588239240,2138
528,1641588237114,undefined,NaN
529,1641588237612,undefined,NaN
530,1641588238022,undefined,NaN
531,1641588238131,undefined,NaN
532,1641588238680,undefined,NaN
533,1641588238713,undefined,NaN
534,1641588238937,undefined,NaN
535,1641588239022,undefined,NaN
536,1641588240724,1641588240733,9
537,1641588240835,1641588240841,6
538,1641588240999,1641588241010,11
539,1641588242563,1641588242612,49
540,1641588242766,1641588242775,9
541,1641588243093,1641588243102,9
542,1641588243776,1641588243785,9
543,1641588243846,1641588243853,7
544,1641588244028,1641588244036,8
545,1641588244776,1641588244783,7
546,1641588245186,1641588245195,9
547,1641588245653,1641588245680,27
548,1641588245746,1641588245783,37
549,1641588246079,1641588246087,8
550,1641588246300,1641588246308,8
551,1641588246327,1641588246334,7
552,1641588246615,1641588246624,9
553,1641588247429,1641588249195,1766
554,1641588247534,undefined,NaN
555,1641588247733,1641588249246,1513
556,1641588248158,undefined,NaN
557,1641588248250,undefined,NaN
558,1641588248834,undefined,NaN
559,1641588249792,1641588249807,15
560,1641588250276,1641588250284,8
561,1641588250894,1641588250904,10
562,1641588251631,1641588251639,8
563,1641588251818,1641588251826,8
564,1641588251992,1641588251999,7
565,1641588252786,1641588252794,8
566,1641588252875,1641588252883,8
567,1641588252951,1641588252980,29
568,1641588253236,1641588253250,14
569,1641588253645,1641588253652,7
570,1641588254053,1641588254073,20
571,1641588255310,1641588255330,20
572,1641588255650,1641588255657,7
573,1641588255896,1641588256207,311
574,1641588256587,1641588256595,8
575,1641588256602,1641588256608,6
576,1641588256628,1641588256636,8
577,1641588256851,1641588262098,5247
578,1641588257533,undefined,NaN
579,1641588257957,undefined,NaN
580,1641588259071,undefined,NaN
581,1641588259748,undefined,NaN
582,1641588260103,undefined,NaN
583,1641588260758,undefined,NaN
584,1641588260931,undefined,NaN
585,1641588261373,undefined,NaN
586,1641588261771,undefined,NaN
587,1641588262849,1641588262857,8
588,1641588263241,1641588263250,9
589,1641588263452,1641588263461,9
590,1641588263783,1641588263790,7
591,1641588264010,1641588264019,9
592,1641588264924,1641588264932,8
593,1641588265506,1641588265514,8
594,1641588265605,1641588265613,8
595,1641588265770,1641588265778,8
596,1641588266296,1641588266303,7
597,1641588267402,1641588269292,1890
598,1641588269583,1641588269590,7
599,1641588270810,1641588270817,7
600,1641588272354,1641588272364,10
601,1641588272466,1641588272472,6
602,1641588272868,1641588272876,8
0,1641588450564,1641588451455,891
1,1641588450943,1641588451461,518
2,1641588451169,undefined,NaN
3,1641588451390,undefined,NaN
4,1641588451403,undefined,NaN
5,1641588451410,undefined,NaN
6,1641588451505,1641588451511,6
7,1641588451591,1641588451599,8
8,1641588452029,1641588452036,7
9,1641588452312,1641588452318,6
10,1641588452460,1641588452467,7
11,1641588452663,1641588452669,6
12,1641588453271,1641588453278,7
13,1641588453345,1641588453367,22
14,1641588453396,1641588453401,5
15,1641588453701,1641588453707,6
16,1641588453779,1641588453787,8
17,1641588454355,1641588454364,9
18,1641588454375,1641588454382,7
19,1641588454384,1641588454391,7
20,1641588454722,1641588454744,22
21,1641588454848,1641588454853,5
22,1641588454876,1641588454882,6
23,1641588454928,1641588454933,5
24,1641588455083,1641588455089,6
25,1641588455093,1641588455102,9
26,1641588455347,1641588455357,10
27,1641588455994,1641588456003,9
28,1641588456402,1641588456409,7
29,1641588456559,1641588456567,8
30,1641588457202,1641588459876,2674
31,1641588457243,undefined,NaN
32,1641588458098,undefined,NaN
33,1641588458170,undefined,NaN
34,1641588459352,undefined,NaN
35,1641588459500,undefined,NaN
36,1641588459543,undefined,NaN
37,1641588460560,1641588460568,8
38,1641588461270,1641588461276,6
39,1641588461666,1641588461674,8
40,1641588461765,1641588461771,6
41,1641588462038,1641588462046,8
42,1641588462315,1641588462323,8
43,1641588462352,1641588462360,8
44,1641588463078,1641588463084,6
45,1641588463208,1641588463239,31
46,1641588463306,1641588463339,33
47,1641588463900,1641588463909,9
48,1641588464024,1641588464031,7
49,1641588464299,1641588464308,9
50,1641588464550,1641588464558,8
51,1641588464946,1641588464956,10
52,1641588466492,1641588466500,8
53,1641588466945,1641588469303,2358
54,1641588467369,1641588469348,1979
55,1641588467528,undefined,NaN
56,1641588467620,undefined,NaN
57,1641588467714,undefined,NaN
58,1641588467941,undefined,NaN
59,1641588468611,undefined,NaN
60,1641588468622,undefined,NaN
61,1641588469058,undefined,NaN
62,1641588470059,1641588470066,7
63,1641588470256,1641588470264,8
64,1641588470708,1641588470719,11
65,1641588471088,1641588471096,8
66,1641588472287,1641588472293,6
67,1641588472331,1641588472339,8
68,1641588472831,1641588472838,7
69,1641588473370,1641588473380,10
70,1641588473442,1641588473462,20
71,1641588474066,1641588474077,11
72,1641588474193,1641588474199,6
73,1641588474205,1641588474211,6
74,1641588474250,1641588474257,7
75,1641588474306,1641588474350,44
76,1641588475153,1641588475160,7
77,1641588475215,1641588475223,8
78,1641588475753,1641588475759,6
79,1641588475758,1641588475766,8
80,1641588475941,1641588475949,8
81,1641588476150,1641588476158,8
82,1641588476492,1641588476503,11
83,1641588476640,1641588476648,8
84,1641588477366,1641588479301,1935
85,1641588477457,undefined,NaN
86,1641588477595,1641588479350,1755
87,1641588477846,undefined,NaN
88,1641588479179,undefined,NaN
89,1641588479478,1641588479488,10
90,1641588479538,1641588479545,7
91,1641588480386,1641588480391,5
92,1641588480612,1641588480620,8
93,1641588481210,1641588481218,8
94,1641588481911,1641588481918,7
95,1641588482314,1641588482321,7
96,1641588482976,1641588482985,9
97,1641588483612,1641588483620,8
98,1641588484206,1641588484214,8
99,1641588484614,1641588484624,10
100,1641588484669,1641588484676,7
101,1641588484786,1641588484794,8
102,1641588484830,1641588484840,10
103,1641588485144,1641588485152,8
104,1641588485879,1641588485886,7
105,1641588485948,1641588485981,33
106,1641588486155,1641588486163,8
107,1641588487656,1641588489302,1646
108,1641588489109,1641588489347,238
109,1641588489893,1641588489902,9
110,1641588490348,1641588490358,10
111,1641588490980,1641588490988,8
112,1641588491629,1641588491640,11
113,1641588491758,1641588491765,7
114,1641588492185,1641588492195,10
115,1641588492978,1641588492984,6
116,1641588493197,1641588493204,7
117,1641588493798,1641588493805,7
118,1641588494155,1641588494163,8
119,1641588494164,1641588494172,8
120,1641588494595,1641588494602,7
121,1641588494755,1641588494794,39
122,1641588494855,1641588494865,10
123,1641588496331,1641588496338,7
124,1641588496580,1641588496588,8
125,1641588496669,1641588496676,7
126,1641588497150,1641588499314,2164
127,1641588497589,1641588499377,1788
128,1641588497774,undefined,NaN
129,1641588498104,undefined,NaN
130,1641588499459,1641588499467,8
131,1641588500466,1641588500474,8
132,1641588500947,1641588500957,10
133,1641588502190,1641588502196,6
134,1641588502439,1641588502447,8
135,1641588502790,1641588502800,10
136,1641588502860,1641588502871,11
137,1641588503283,1641588503291,8
138,1641588504524,1641588504534,10
139,1641588505774,1641588505785,11
140,1641588505808,1641588505825,17
141,1641588507269,1641588509306,2037
142,1641588507839,1641588509351,1512
143,1641588507911,undefined,NaN
144,1641588507957,undefined,NaN
145,1641588509178,undefined,NaN
146,1641588510198,1641588510205,7
147,1641588510950,1641588510958,8
148,1641588511029,1641588511038,9
149,1641588511079,1641588511086,7
151,1641588511272,1641588511295,23
152,1641588511273,undefined,NaN
153,1641588511525,1641588511536,11
154,1641588511963,1641588511971,8
155,1641588512010,1641588512019,9
156,1641588512034,1641588512041,7
157,1641588512501,1641588512508,7
158,1641588512636,1641588512643,7
159,1641588513327,1641588513332,5
160,1641588513768,1641588513776,8
161,1641588515759,1641588515768,9
162,1641588515790,1641588515798,8
163,1641588515884,1641588515892,8
164,1641588517881,1641588519305,1424
165,1641588518088,undefined,NaN
166,1641588518100,undefined,NaN
167,1641588518203,1641588519351,1148
168,1641588519781,1641588519789,8
169,1641588521071,1641588521080,9
170,1641588521159,1641588521168,9
171,1641588521476,1641588521484,8
172,1641588521686,1641588521716,30
173,1641588521959,1641588521967,8
174,1641588522390,1641588522400,10
175,1641588522425,1641588522432,7
176,1641588522478,1641588522485,7
177,1641588522795,1641588522803,8
178,1641588523070,1641588523079,9
179,1641588524282,1641588524290,8
180,1641588524492,1641588524500,8
181,1641588524741,1641588524749,8
182,1641588526346,1641588526354,8
183,1641588526896,1641588529304,2408
184,1641588527188,1641588529348,2160
185,1641588527573,undefined,NaN
186,1641588527737,undefined,NaN
187,1641588527797,undefined,NaN
188,1641588528499,undefined,NaN
189,1641588530939,1641588530947,8
190,1641588530978,1641588530986,8
191,1641588531501,1641588531509,8
192,1641588531570,1641588531595,25
193,1641588531572,1641588531601,29
194,1641588531943,1641588531992,49
195,1641588532494,1641588532506,12
196,1641588532550,1641588532558,8
197,1641588532655,1641588532674,19
198,1641588532917,1641588532935,18
199,1641588533663,1641588533671,8
200,1641588534944,1641588534951,7
201,1641588535513,1641588535519,6
202,1641588535779,1641588535785,6
203,1641588535859,1641588535867,8
204,1641588536579,1641588536587,8
205,1641588536598,1641588536605,7
206,1641588537479,1641588539305,1826
207,1641588538151,1641588539349,1198
208,1641588540207,1641588540215,8
209,1641588542214,1641588542221,7
210,1641588542215,1641588542227,12
211,1641588543563,1641588543571,8
212,1641588543730,1641588543737,7
213,1641588543865,1641588543872,7
214,1641588543999,1641588544005,6
215,1641588544354,1641588544362,8
216,1641588544477,1641588544487,10
217,1641588544547,1641588544563,16
218,1641588544748,1641588544755,7
219,1641588545576,1641588545584,8
220,1641588546725,1641588546733,8
221,1641588546872,1641588549312,2440
222,1641588549160,undefined,NaN
223,1641588549779,1641588549787,8
224,1641588549856,1641588549879,23
225,1641588550637,1641588550645,8
226,1641588551216,1641588551225,9
227,1641588551263,1641588551271,8
228,1641588551610,1641588551616,6
229,1641588552189,1641588552204,15
230,1641588552681,1641588552688,7
231,1641588552868,1641588552876,8
232,1641588553419,1641588553426,7
233,1641588553734,1641588553742,8
234,1641588553774,1641588553782,8
235,1641588553953,1641588553960,7
236,1641588554231,1641588554239,8
237,1641588554240,1641588554247,7
238,1641588554693,1641588554701,8
239,1641588554903,1641588554911,8
240,1641588554921,1641588554928,7
241,1641588555423,1641588555431,8
242,1641588556302,1641588556310,8
243,1641588556811,1641588559306,2495
244,1641588557514,1641588559349,1835
245,1641588557678,undefined,NaN
246,1641588558362,undefined,NaN
247,1641588558740,undefined,NaN
248,1641588559909,1641588559917,8
249,1641588559925,1641588559935,10
250,1641588560021,1641588560028,7
251,1641588560147,1641588560154,7
252,1641588560401,1641588560409,8
253,1641588560935,1641588560943,8
254,1641588561397,1641588561406,9
255,1641588561588,1641588561596,8
256,1641588562643,1641588562651,8
257,1641588562765,1641588562772,7
258,1641588562884,1641588562890,6
259,1641588563039,1641588563048,9
260,1641588563049,1641588563056,7
261,1641588563341,1641588563348,7
262,1641588566202,1641588566210,8
263,1641588566678,1641588566687,9
264,1641588567719,1641588569297,1578
265,1641588567875,undefined,NaN
266,1641588567921,undefined,NaN
267,1641588568430,1641588569342,912
268,1641588568627,undefined,NaN
269,1641588568917,undefined,NaN
270,1641588569125,undefined,NaN
271,1641588570833,1641588570842,9
272,1641588571918,1641588571927,9
273,1641588572009,1641588572016,7
274,1641588572058,1641588572063,5
275,1641588572304,1641588572312,8
276,1641588572682,1641588572691,9
277,1641588572749,1641588572757,8
278,1641588572793,1641588572807,14
279,1641588573746,1641588573753,7
280,1641588574271,1641588574278,7
281,1641588574331,1641588574341,10
282,1641588574672,1641588574680,8
283,1641588574725,1641588574733,8
284,1641588575940,1641588575947,7
285,1641588576079,1641588576085,6
286,1641588576208,1641588576219,11
287,1641588576711,1641588576719,8
288,1641588577691,1641588579297,1606
289,1641588578100,1641588579343,1243
290,1641588578324,undefined,NaN
291,1641588578551,undefined,NaN
292,1641588578748,undefined,NaN
293,1641588578855,undefined,NaN
294,1641588579162,undefined,NaN
295,1641588579679,1641588579688,9
296,1641588579983,1641588579992,9
297,1641588580772,1641588580781,9
298,1641588581106,1641588581114,8
299,1641588581544,1641588581556,12
300,1641588581838,1641588581853,15
302,1641588581890,1641588581922,32
303,1641588582721,1641588582730,9
304,1641588582801,1641588582819,18
305,1641588583559,1641588583566,7
306,1641588583807,1641588583815,8
307,1641588583957,1641588583965,8
308,1641588584575,1641588584583,8
309,1641588585239,1641588585261,22
310,1641588585273,1641588585286,13
311,1641588586675,1641588586682,7
312,1641588586846,1641588589303,2457
313,1641588587491,1641588589348,1857
314,1641588588262,undefined,NaN
315,1641588588460,undefined,NaN
316,1641588588491,undefined,NaN
317,1641588588496,undefined,NaN
318,1641588590059,1641588590067,8
319,1641588590197,1641588590205,8
320,1641588590778,1641588590786,8
321,1641588590848,1641588590854,6
322,1641588590895,1641588590902,7
323,1641588592757,1641588592765,8
324,1641588593930,1641588593938,8
325,1641588594314,1641588594325,11
326,1641588594731,1641588594739,8
327,1641588595262,1641588595271,9
328,1641588595843,1641588595855,12
329,1641588596484,1641588596493,9
330,1641588597528,1641588599316,1788
331,1641588598148,undefined,NaN
332,1641588598380,undefined,NaN
333,1641588598686,1641588599361,675
334,1641588599168,undefined,NaN
335,1641588599309,undefined,NaN
336,1641588599396,1641588599403,7
337,1641588599429,1641588599438,9
338,1641588599987,1641588599997,10
339,1641588600478,1641588600487,9
340,1641588600583,1641588600589,6
341,1641588601347,1641588601355,8
342,1641588601402,1641588601423,21
343,1641588602050,1641588602058,8
344,1641588602499,1641588602506,7
345,1641588603853,1641588603861,8
346,1641588604015,1641588604023,8
347,1641588604241,1641588604251,10
348,1641588604713,1641588604720,7
349,1641588604845,1641588604852,7
350,1641588604983,1641588604989,6
351,1641588606156,1641588606163,7
352,1641588606240,1641588606247,7
353,1641588607619,1641588609318,1699
354,1641588608548,1641588609364,816
355,1641588609688,1641588609696,8
356,1641588609741,1641588609748,7
357,1641588609826,1641588609832,6
358,1641588610095,1641588610103,8
359,1641588611055,1641588611063,8
360,1641588612088,1641588612098,10
361,1641588612534,1641588612542,8
362,1641588612823,1641588612834,11
363,1641588612848,1641588612856,8
364,1641588613050,1641588613063,13
365,1641588614267,1641588614274,7
366,1641588614935,1641588614947,12
367,1641588617488,1641588619319,1831
368,1641588617944,1641588619364,1420
369,1641588617999,undefined,NaN
370,1641588618633,undefined,NaN
371,1641588619072,undefined,NaN
372,1641588620019,1641588620026,7
373,1641588620029,1641588620036,7
374,1641588621303,1641588621311,8
375,1641588621362,1641588621370,8
376,1641588622679,1641588622690,11
377,1641588623130,1641588623138,8
378,1641588623727,1641588623733,6
379,1641588623825,1641588623832,7
380,1641588624332,1641588624340,8
381,1641588624704,1641588624711,7
382,1641588625857,1641588625865,8
383,1641588626570,1641588626578,8
384,1641588627037,1641588629315,2278
385,1641588627161,1641588629380,2219
386,1641588627184,undefined,NaN
387,1641588627983,undefined,NaN
388,1641588629328,1641588629425,97
389,1641588629543,1641588629554,11
390,1641588629570,1641588629577,7
391,1641588630047,1641588630096,49
392,1641588630555,1641588630598,43
393,1641588631611,1641588631619,8
394,1641588632102,1641588632111,9
395,1641588632214,1641588632224,10
396,1641588633040,1641588633049,9
397,1641588633287,1641588633295,8
398,1641588633548,1641588633556,8
399,1641588634649,1641588634660,11
400,1641588634686,1641588634694,8
401,1641588634860,1641588634892,32
402,1641588635324,1641588635331,7
403,1641588636322,1641588636330,8
404,1641588637507,1641588639325,1818
405,1641588637538,1641588639369,1831
406,1641588637804,undefined,NaN
407,1641588638269,undefined,NaN
408,1641588638888,undefined,NaN
409,1641588639974,1641588639980,6
410,1641588640256,1641588640264,8
411,1641588640721,1641588640728,7
412,1641588641459,1641588641466,7
413,1641588642638,1641588642652,14
414,1641588642905,1641588642918,13
415,1641588643191,1641588643218,27
416,1641588643531,1641588643539,8
417,1641588643641,1641588643650,9
418,1641588643954,1641588643963,9
419,1641588644117,1641588644126,9
420,1641588644240,1641588644248,8
421,1641588644356,1641588644362,6
422,1641588644448,1641588644456,8
423,1641588645206,1641588645216,10
424,1641588646074,1641588646082,8
425,1641588646729,1641588646737,8
426,1641588646811,1641588649318,2507
427,1641588647443,undefined,NaN
428,1641588647822,undefined,NaN
429,1641588647925,undefined,NaN
430,1641588648728,1641588649323,595
431,1641588649352,1641588649358,6
432,1641588649860,1641588649868,8
433,1641588650014,1641588650022,8
434,1641588650125,1641588650134,9
435,1641588650857,1641588650867,10
436,1641588652641,1641588652649,8
437,1641588652763,1641588652769,6
438,1641588652942,1641588652950,8
439,1641588653258,1641588653265,7
440,1641588653528,1641588653536,8
441,1641588653578,1641588653589,11
442,1641588654048,1641588654056,8
443,1641588655544,1641588655555,11
444,1641588655952,1641588655958,6
445,1641588656074,1641588656096,22
446,1641588656507,1641588656515,8
447,1641588656562,1641588656570,8
448,1641588658831,1641588658839,8
449,1641588658952,1641588658963,11
450,1641588659013,1641588659021,8
451,1641588659477,1641588659485,8
453,1641588659808,1641588659824,16
454,1641588660124,1641588660138,14
455,1641588660214,1641588660221,7
456,1641588660405,1641588660413,8
457,1641588661002,1641588661013,11
458,1641588661060,1641588661068,8
459,1641588662044,1641588662052,8
460,1641588662353,1641588662361,8
461,1641588662589,1641588662597,8
462,1641588662712,1641588662720,8
463,1641588663712,1641588663720,8
464,1641588663767,1641588663776,9
465,1641588665477,1641588665484,7
466,1641588665823,1641588665844,21
467,1641588665867,1641588665880,13
468,1641588666476,1641588666489,13
469,1641588667056,1641588669322,2266
470,1641588667238,undefined,NaN
471,1641588667297,undefined,NaN
472,1641588667730,1641588669367,1637
473,1641588668016,undefined,NaN
474,1641588668869,undefined,NaN
475,1641588669746,1641588669754,8
476,1641588670163,1641588670172,9
477,1641588670648,1641588670655,7
478,1641588671030,1641588671036,6
479,1641588671432,1641588671443,11
480,1641588671871,1641588671878,7
481,1641588672016,1641588672024,8
482,1641588672686,1641588672693,7
483,1641588672863,1641588672871,8
484,1641588672908,1641588672917,9
485,1641588673466,1641588673484,18
486,1641588673472,1641588673491,19
487,1641588673500,1641588673511,11
488,1641588674482,1641588674491,9
489,1641588674971,1641588674979,8
490,1641588675330,1641588675338,8
491,1641588675333,1641588675350,17
492,1641588675794,1641588675804,10
493,1641588677470,1641588679320,1850
494,1641588677476,undefined,NaN
495,1641588678156,1641588679364,1208
496,1641588679242,undefined,NaN
497,1641588679288,undefined,NaN
498,1641588679811,1641588679818,7
499,1641588680128,1641588680139,11
500,1641588680275,1641588680288,13
501,1641588680692,1641588680699,7
502,1641588681936,1641588681944,8
503,1641588682486,1641588682494,8
504,1641588682633,1641588682639,6
505,1641588682663,1641588682671,8
506,1641588683543,1641588683552,9
507,1641588683585,1641588683593,8
508,1641588683968,1641588683976,8
509,1641588684085,1641588684092,7
510,1641588684915,1641588684924,9
511,1641588685517,1641588685525,8
512,1641588685573,1641588685581,8
513,1641588686672,1641588686679,7
514,1641588687550,1641588689321,1771
515,1641588687941,1641588689325,1384
516,1641588688128,undefined,NaN
517,1641588688658,undefined,NaN
518,1641588688790,1641588689369,579
519,1641588688927,undefined,NaN
520,1641588688959,undefined,NaN
521,1641588689054,undefined,NaN
522,1641588689423,1641588689429,6
523,1641588689728,1641588689737,9
524,1641588690098,1641588690118,20
525,1641588690332,1641588690339,7
526,1641588690600,1641588690607,7
527,1641588691092,1641588691098,6
528,1641588691346,1641588691354,8
529,1641588691503,1641588691515,12
530,1641588692186,1641588692194,8
531,1641588693046,1641588693060,14
532,1641588693166,1641588693173,7
533,1641588693239,1641588693268,29
534,1641588693339,1641588693349,10
535,1641588693427,1641588693433,6
536,1641588693564,1641588693571,7
537,1641588694403,1641588694417,14
538,1641588694493,1641588694510,17
539,1641588695014,1641588695030,16
540,1641588695038,1641588695046,8
541,1641588695100,1641588695106,6
542,1641588695209,1641588695217,8
543,1641588695243,1641588695250,7
544,1641588695389,1641588695397,8
545,1641588696446,1641588696453,7
546,1641588697033,1641588699319,2286
547,1641588697609,1641588699376,1767
548,1641588698243,undefined,NaN
549,1641588698498,undefined,NaN
550,1641588698751,undefined,NaN
551,1641588699058,undefined,NaN
552,1641588699668,1641588699676,8
553,1641588700034,1641588700043,9
554,1641588700376,1641588700384,8
555,1641588701505,1641588701514,9
556,1641588702836,1641588702844,8
557,1641588703456,1641588703463,7
558,1641588703793,1641588703801,8
559,1641588704291,1641588704299,8
560,1641588705127,1641588705135,8
561,1641588705268,1641588705289,21
562,1641588705329,1641588705335,6
563,1641588705708,1641588705721,13
564,1641588706100,1641588706109,9
565,1641588706444,1641588706458,14
566,1641588708135,1641588709332,1197
567,1641588708309,undefined,NaN
568,1641588708694,1641588709380,686
569,1641588710281,1641588710288,7
570,1641588710643,1641588710662,19
571,1641588711414,1641588711422,8
572,1641588711524,1641588711531,7
573,1641588712055,1641588712063,8
574,1641588712542,1641588712549,7
575,1641588712563,1641588712572,9
576,1641588712685,1641588712692,7
577,1641588713673,1641588713681,8
578,1641588713722,1641588713730,8
579,1641588713837,1641588713845,8
580,1641588714496,1641588714503,7
581,1641588714852,1641588714861,9
582,1641588715157,1641588715165,8
583,1641588715395,1641588715694,299
584,1641588715838,1641588715846,8
585,1641588716472,1641588716485,13
586,1641588716705,1641588716712,7
587,1641588718224,1641588719319,1095
588,1641588719086,1641588719364,278
589,1641588719087,undefined,NaN
590,1641588719300,undefined,NaN
591,1641588719530,1641588719537,7
592,1641588720094,1641588720103,9
593,1641588720204,1641588720212,8
594,1641588720300,1641588720308,8
595,1641588720609,1641588720618,9
596,1641588720971,1641588720979,8
597,1641588721556,1641588721566,10
598,1641588722188,1641588722198,10
599,1641588723544,1641588723565,21
600,1641588726706,1641588726713,7
601,1641588727253,undefined,NaN
602,1641588727445,undefined,NaN
0,1641588965001,1641588965950,949
1,1641588965377,1641588965957,580
2,1641588965573,undefined,NaN
3,1641588966041,1641588966051,10
4,1641588966277,1641588966296,19
5,1641588967357,1641588969715,2358
6,1641588967968,undefined,NaN
7,1641588968661,1641588969721,1060
8,1641588969228,undefined,NaN
9,1641588969526,undefined,NaN
10,1641588969797,1641588969816,19
11,1641588970010,1641588970018,8
12,1641588970222,1641588970229,7
13,1641588970461,1641588970469,8
14,1641588971227,1641588971235,8
15,1641588972415,1641588972422,7
16,1641588972569,1641588972575,6
17,1641588973789,1641588973795,6
18,1641588974692,1641588974698,6
19,1641588974810,1641588974819,9
20,1641588976327,1641588976334,7
21,1641588976458,1641588976463,5
22,1641588976824,1641588979314,2490
23,1641588976996,undefined,NaN
24,1641588977055,undefined,NaN
25,1641588978292,1641588979358,1066
26,1641588979213,undefined,NaN
27,1641588979361,1641588979367,6
28,1641588979427,1641588979433,6
29,1641588979944,1641588979951,7
30,1641588979955,1641588979961,6
31,1641588980472,1641588980479,7
32,1641588980657,1641588980664,7
33,1641588981153,1641588981160,7
34,1641588981192,1641588981201,9
35,1641588981990,1641588981996,6
36,1641588982158,1641588982165,7
37,1641588984139,1641588984147,8
38,1641588984455,1641588984463,8
39,1641588984533,1641588984559,26
40,1641588985040,1641588985049,9
41,1641588985044,1641588985059,15
42,1641588985295,1641588985313,18
43,1641588986011,1641588986021,10
44,1641588986449,1641588986460,11
45,1641588986803,1641588989317,2514
46,1641588986905,undefined,NaN
47,1641588988311,1641588989363,1052
48,1641588988415,undefined,NaN
49,1641588988924,undefined,NaN
50,1641588989094,undefined,NaN
51,1641588989951,1641588989959,8
52,1641588990297,1641588990310,13
53,1641588990705,1641588990713,8
54,1641588991194,1641588991203,9
55,1641588991559,1641588991567,8
56,1641588992970,1641588992983,13
57,1641588993473,1641588993481,8
58,1641588993757,1641588993765,8
59,1641588995420,1641588995455,35
60,1641588997098,1641588999324,2226
61,1641588997926,undefined,NaN
62,1641588998148,undefined,NaN
63,1641588998762,1641588999382,620
64,1641588999194,undefined,NaN
65,1641588999798,1641588999806,8
66,1641589000744,1641589000763,19
67,1641589001170,1641589001178,8
68,1641589001204,1641589001213,9
69,1641589001397,1641589001406,9
70,1641589002459,1641589002467,8
71,1641589004209,1641589004220,11
72,1641589004429,1641589004437,8
73,1641589004520,1641589004530,10
74,1641589005346,1641589005354,8
75,1641589005372,1641589005379,7
76,1641589005812,1641589005820,8
77,1641589006256,1641589006280,24
78,1641589007855,1641589009365,1510
79,1641589008014,undefined,NaN
80,1641589008586,1641589009410,824
81,1641589009271,undefined,NaN
82,1641589009778,1641589009786,8
83,1641589009827,1641589009835,8
84,1641589009941,1641589009947,6
85,1641589010732,1641589010740,8
86,1641589010831,1641589010839,8
87,1641589011062,1641589011069,7
88,1641589012062,1641589012070,8
89,1641589014006,1641589014014,8
90,1641589014274,1641589014283,9
91,1641589014781,1641589014792,11
92,1641589014852,1641589014859,7
93,1641589015640,1641589015648,8
94,1641589015646,1641589015654,8
95,1641589015898,1641589015906,8
96,1641589017394,1641589019317,1923
97,1641589019469,1641589019477,8
98,1641589020137,1641589020145,8
99,1641589020923,1641589020930,7
100,1641589020988,1641589020997,9
101,1641589021122,1641589021133,11
102,1641589021216,1641589021225,9
103,1641589021978,1641589021986,8
104,1641589022247,1641589022255,8
105,1641589022922,1641589022930,8
106,1641589023087,1641589023095,8
107,1641589023587,1641589023609,22
108,1641589023974,1641589023982,8
109,1641589024218,1641589024225,7
110,1641589024577,1641589024587,10
111,1641589025219,1641589025229,10
112,1641589025402,1641589025412,10
113,1641589025660,1641589025667,7
114,1641589025884,1641589025893,9
115,1641589026298,1641589026332,34
116,1641589027546,1641589029321,1775
117,1641589027830,undefined,NaN
118,1641589028176,undefined,NaN
119,1641589028451,undefined,NaN
120,1641589029861,1641589029869,8
121,1641589029897,1641589029904,7
122,1641589030404,1641589030413,9
123,1641589030963,1641589030971,8
124,1641589032142,1641589032151,9
125,1641589032429,1641589032437,8
126,1641589032942,1641589032950,8
127,1641589033498,1641589033506,8
128,1641589034024,1641589034037,13
129,1641589034705,1641589034712,7
130,1641589034995,1641589035004,9
131,1641589035922,1641589035929,7
132,1641589036274,1641589036282,8
133,1641589037468,1641589039320,1852
134,1641589038246,undefined,NaN
135,1641589038549,undefined,NaN
136,1641589039744,1641589039752,8
137,1641589039943,1641589039953,10
138,1641589040238,1641589040246,8
139,1641589040906,1641589040915,9
140,1641589040965,1641589040982,17
141,1641589040968,1641589040989,21
142,1641589042015,1641589042024,9
143,1641589042641,1641589042650,9
144,1641589042985,1641589042993,8
145,1641589043600,1641589043608,8
146,1641589043675,1641589043688,13
147,1641589044085,1641589044093,8
148,1641589044684,1641589044696,12
149,1641589044888,1641589044896,8
151,1641589044970,1641589044980,10
152,1641589045635,1641589045643,8
153,1641589046354,1641589046361,7
154,1641589047662,1641589049322,1660
155,1641589047863,undefined,NaN
156,1641589049330,1641589049339,9
157,1641589049485,1641589049493,8
158,1641589050215,1641589050222,7
159,1641589050297,1641589050314,17
160,1641589050889,1641589050901,12
161,1641589051738,1641589051745,7
162,1641589052128,1641589052136,8
163,1641589052599,1641589052606,7
164,1641589052771,1641589052783,12
165,1641589053427,1641589053440,13
166,1641589053658,1641589053666,8
167,1641589054800,1641589054808,8
168,1641589055788,1641589055796,8
169,1641589056618,1641589056627,9
170,1641589056688,1641589056694,6
171,1641589057151,1641589059320,2169
172,1641589058029,1641589059323,1294
173,1641589058040,undefined,NaN
174,1641589058774,1641589059330,556
175,1641589058821,undefined,NaN
176,1641589059445,1641589059452,7
177,1641589060062,1641589060072,10
178,1641589061201,1641589061210,9
179,1641589061330,1641589061336,6
180,1641589062362,1641589062369,7
181,1641589063076,1641589063084,8
182,1641589063139,1641589063152,13
183,1641589063305,1641589063315,10
184,1641589063337,1641589063348,11
185,1641589063678,1641589063686,8
186,1641589064093,1641589064101,8
187,1641589064361,1641589064369,8
188,1641589064368,1641589064385,17
189,1641589064730,1641589064738,8
190,1641589065053,1641589065064,11
191,1641589065331,1641589065339,8
192,1641589066065,1641589066074,9
193,1641589067067,1641589069309,2242
194,1641589067131,undefined,NaN
195,1641589067200,undefined,NaN
196,1641589069308,1641589069353,45
197,1641589070224,1641589070232,8
198,1641589070496,1641589070506,10
199,1641589071785,1641589071795,10
200,1641589071814,1641589071826,12
201,1641589071827,1641589071840,13
202,1641589072856,1641589072864,8
203,1641589072948,1641589072957,9
204,1641589073360,1641589073368,8
205,1641589073496,1641589073503,7
206,1641589075596,1641589075604,8
207,1641589076361,1641589076409,48
208,1641589076498,1641589076506,8
209,1641589076730,1641589076739,9
210,1641589077589,1641589079315,1726
211,1641589077904,1641589079359,1455
212,1641589077959,undefined,NaN
213,1641589078260,undefined,NaN
214,1641589078391,undefined,NaN
215,1641589079264,undefined,NaN
216,1641589080484,1641589080492,8
217,1641589081192,1641589081202,10
218,1641589081327,1641589081333,6
219,1641589082088,1641589082095,7
220,1641589082297,1641589082304,7
221,1641589082382,1641589082389,7
222,1641589083966,1641589083973,7
223,1641589084620,1641589084629,9
224,1641589084742,1641589084750,8
225,1641589084761,1641589084767,6
226,1641589084979,1641589084986,7
227,1641589085103,1641589085112,9
228,1641589085678,1641589085686,8
229,1641589085844,1641589085852,8
230,1641589086314,1641589086321,7
231,1641589086333,1641589086345,12
232,1641589087486,1641589087498,12
233,1641589087650,1641589087667,17
234,1641589089229,1641589089240,11
235,1641589090886,1641589090898,12
236,1641589090896,1641589090904,8
237,1641589091991,1641589091999,8
238,1641589092548,1641589092556,8
239,1641589095522,1641589095530,8
240,1641589095760,1641589095768,8
241,1641589095849,1641589095860,11
242,1641589096354,1641589096361,7
243,1641589096938,1641589099319,2381
244,1641589098059,1641589099364,1305
245,1641589098146,undefined,NaN
246,1641589098671,undefined,NaN
247,1641589099808,1641589099816,8
248,1641589099897,1641589099908,11
249,1641589100106,1641589100114,8
250,1641589101386,1641589101396,10
251,1641589101884,1641589101895,11
252,1641589102028,1641589102040,12
253,1641589104848,1641589104860,12
254,1641589105367,1641589105379,12
255,1641589105823,1641589105828,5
256,1641589106175,1641589106191,16
257,1641589106451,1641589106493,42
258,1641589106572,1641589106577,5
259,1641589106741,1641589106754,13
260,1641589106803,1641589109316,2513
261,1641589107275,1641589109360,2085
262,1641589107352,undefined,NaN
263,1641589108650,undefined,NaN
264,1641589108937,undefined,NaN
265,1641589109678,1641589109686,8
266,1641589110189,1641589110197,8
267,1641589110538,1641589110549,11
268,1641589111095,1641589111109,14
269,1641589113872,1641589115534,1662
270,1641589114069,1641589115592,1523
271,1641589114386,undefined,NaN
272,1641589115118,1641589115636,518
273,1641589115912,1641589115920,8
274,1641589116895,1641589119325,2430
275,1641589117117,undefined,NaN
276,1641589117812,1641589119329,1517
277,1641589117891,undefined,NaN
278,1641589118058,undefined,NaN
279,1641589118063,undefined,NaN
280,1641589118073,undefined,NaN
281,1641589118697,undefined,NaN
282,1641589119173,undefined,NaN
283,1641589119325,1641589119374,49
284,1641589119579,1641589119600,21
285,1641589120041,1641589120048,7
286,1641589120254,1641589120279,25
287,1641589120377,1641589120393,16
288,1641589120458,1641589120486,28
289,1641589120726,1641589120734,8
290,1641589120820,1641589120827,7
291,1641589121154,1641589121162,8
292,1641589121541,1641589121562,21
293,1641589121542,1641589121569,27
294,1641589122146,1641589122153,7
295,1641589124156,1641589124191,35
296,1641589124214,1641589124238,24
297,1641589125709,1641589125716,7
298,1641589125759,1641589125766,7
299,1641589126456,1641589126486,30
300,1641589126982,1641589129316,2334
302,1641589127077,undefined,NaN
303,1641589127379,1641589129360,1981
304,1641589128358,undefined,NaN
305,1641589128671,undefined,NaN
306,1641589129209,undefined,NaN
307,1641589130202,1641589130210,8
308,1641589130414,1641589130421,7
309,1641589130619,1641589130626,7
310,1641589131023,1641589131029,6
311,1641589131624,1641589131631,7
312,1641589131821,1641589131831,10
313,1641589132002,1641589132008,6
314,1641589133012,1641589133019,7
315,1641589133941,1641589133950,9
316,1641589134484,1641589134504,20
317,1641589135542,1641589135576,34
318,1641589136056,1641589136063,7
319,1641589136393,1641589136401,8
320,1641589136418,1641589136460,42
321,1641589136492,1641589136500,8
322,1641589136709,1641589136718,9
323,1641589137400,1641589139354,1954
324,1641589137520,undefined,NaN
325,1641589138303,undefined,NaN
326,1641589138356,undefined,NaN
327,1641589138651,1641589139403,752
328,1641589139624,1641589139630,6
329,1641589139650,1641589139657,7
330,1641589140514,1641589140521,7
331,1641589141009,1641589141016,7
332,1641589141262,1641589141269,7
333,1641589141555,1641589141584,29
334,1641589142045,1641589142098,53
335,1641589142893,1641589142917,24
336,1641589145775,1641589145884,109
337,1641589146406,1641589146487,81
338,1641589146568,1641589146579,11
339,1641589147579,1641589149343,1764
340,1641589147823,undefined,NaN
341,1641589147863,undefined,NaN
342,1641589148407,1641589149346,939
343,1641589149121,1641589149350,229
344,1641589149500,1641589149508,8
345,1641589150022,1641589150030,8
346,1641589150290,1641589150298,8
347,1641589150496,1641589150504,8
348,1641589150999,1641589151008,9
349,1641589151130,1641589151136,6
350,1641589151459,1641589151467,8
351,1641589151495,1641589151503,8
352,1641589151624,1641589151632,8
353,1641589151699,1641589151707,8
354,1641589152135,1641589152143,8
355,1641589152306,1641589152316,10
356,1641589152729,1641589152736,7
357,1641589153574,1641589153581,7
358,1641589154477,1641589154485,8
359,1641589155081,1641589155089,8
360,1641589155274,1641589155282,8
361,1641589156035,1641589156043,8
362,1641589156156,1641589156175,19
363,1641589156615,1641589156624,9
364,1641589156997,1641589159351,2354
365,1641589157213,undefined,NaN
366,1641589157630,1641589159409,1779
367,1641589157864,undefined,NaN
368,1641589158055,undefined,NaN
369,1641589158982,undefined,NaN
370,1641589159162,undefined,NaN
371,1641589160425,1641589160433,8
372,1641589160664,1641589160672,8
373,1641589161251,1641589161259,8
374,1641589161839,1641589161848,9
375,1641589162629,1641589162636,7
376,1641589162993,1641589163002,9
377,1641589163381,1641589163389,8
378,1641589163458,1641589163467,9
379,1641589163813,1641589163821,8
380,1641589165563,1641589166084,521
381,1641589165609,undefined,NaN
382,1641589166703,1641589166711,8
383,1641589166995,1641589169323,2328
384,1641589167111,undefined,NaN
385,1641589167462,1641589169369,1907
386,1641589167749,undefined,NaN
387,1641589168249,undefined,NaN
388,1641589168849,undefined,NaN
389,1641589169165,undefined,NaN
390,1641589170559,1641589170566,7
391,1641589170903,1641589170911,8
392,1641589172177,1641589172186,9
393,1641589172834,1641589172841,7
394,1641589173190,1641589173198,8
395,1641589173708,1641589173715,7
396,1641589174364,1641589174372,8
397,1641589174562,1641589174570,8
398,1641589175038,1641589175046,8
399,1641589176174,1641589176189,15
400,1641589176653,1641589179406,2753
401,1641589177034,undefined,NaN
402,1641589178028,1641589179413,1385
403,1641589178030,undefined,NaN
404,1641589179030,1641589179417,387
405,1641589179225,undefined,NaN
406,1641589179374,undefined,NaN
407,1641589179388,undefined,NaN
408,1641589179406,1641589179461,55
409,1641589179975,1641589179984,9
410,1641589180821,1641589180829,8
411,1641589180882,1641589180891,9
412,1641589181974,1641589181983,9
413,1641589183207,1641589183226,19
414,1641589183473,1641589183485,12
415,1641589183588,1641589183595,7
416,1641589183927,1641589183935,8
417,1641589184322,1641589184330,8
418,1641589184340,1641589184349,9
419,1641589184661,1641589184674,13
420,1641589185102,1641589185111,9
421,1641589185603,1641589185630,27
422,1641589186475,1641589186569,94
423,1641589186589,1641589186598,9
424,1641589186629,1641589186637,8
425,1641589187815,1641589189345,1530
426,1641589187990,undefined,NaN
427,1641589188146,1641589189389,1243
428,1641589188622,undefined,NaN
429,1641589190465,1641589190472,7
430,1641589190885,1641589190896,11
431,1641589190977,1641589190988,11
432,1641589190997,1641589191003,6
433,1641589191046,1641589191061,15
434,1641589191566,1641589191580,14
435,1641589191682,1641589191688,6
436,1641589193577,1641589193587,10
437,1641589194034,1641589194042,8
438,1641589194776,1641589194794,18
439,1641589194787,1641589194806,19
440,1641589194833,1641589194842,9
441,1641589195514,1641589195522,8
442,1641589195697,1641589195705,8
443,1641589196298,1641589196307,9
444,1641589196399,1641589196408,9
445,1641589196985,1641589199315,2330
446,1641589197177,1641589199359,2182
447,1641589197224,undefined,NaN
448,1641589198504,undefined,NaN
449,1641589198668,undefined,NaN
450,1641589199433,1641589199439,6
451,1641589199576,1641589199582,6
453,1641589199909,1641589199926,17
454,1641589200021,1641589200027,6
455,1641589200140,1641589200147,7
456,1641589200751,1641589200758,7
457,1641589200918,1641589200931,13
458,1641589201494,1641589201502,8
459,1641589201760,1641589201775,15
460,1641589201899,1641589201906,7
461,1641589201947,1641589201955,8
462,1641589202541,1641589202548,7
463,1641589202996,1641589203006,10
464,1641589203376,1641589203383,7
465,1641589203431,1641589203440,9
466,1641589203657,1641589203662,5
467,1641589204045,1641589204052,7
468,1641589204050,1641589204056,6
469,1641589204052,1641589204060,8
470,1641589204095,1641589204102,7
471,1641589204597,1641589204604,7
472,1641589204671,1641589204678,7
473,1641589204805,1641589204817,12
474,1641589204840,1641589204849,9
475,1641589205791,1641589205799,8
476,1641589206982,1641589209340,2358
477,1641589207441,1641589209385,1944
478,1641589208448,undefined,NaN
479,1641589208671,undefined,NaN
480,1641589208893,undefined,NaN
481,1641589209779,1641589209787,8
482,1641589210427,1641589210435,8
483,1641589210505,1641589210511,6
484,1641589211740,1641589211753,13
485,1641589211957,1641589211965,8
486,1641589212027,1641589212035,8
487,1641589212424,1641589212432,8
488,1641589212825,1641589212833,8
489,1641589213177,1641589213184,7
490,1641589213614,1641589213622,8
491,1641589215494,1641589215502,8
492,1641589215510,1641589215518,8
493,1641589215563,1641589215571,8
494,1641589216487,1641589216510,23
495,1641589216969,1641589219361,2392
496,1641589217032,undefined,NaN
497,1641589217723,undefined,NaN
498,1641589218237,undefined,NaN
499,1641589218421,undefined,NaN
500,1641589219429,1641589219445,16
501,1641589219517,1641589219525,8
502,1641589220250,1641589220262,12
503,1641589220318,1641589220326,8
504,1641589221793,1641589221800,7
505,1641589221819,1641589221826,7
506,1641589221856,1641589221866,10
507,1641589222392,1641589222399,7
508,1641589224168,1641589224175,7
509,1641589225310,1641589225319,9
510,1641589226191,1641589226203,12
511,1641589226889,1641589229319,2430
512,1641589226966,undefined,NaN
513,1641589227353,undefined,NaN
514,1641589228087,undefined,NaN
515,1641589228253,undefined,NaN
516,1641589228478,undefined,NaN
517,1641589229061,undefined,NaN
518,1641589229431,1641589229437,6
519,1641589229475,1641589229481,6
520,1641589230502,1641589230510,8
521,1641589231459,1641589231469,10
522,1641589231547,1641589231559,12
523,1641589231621,1641589231628,7
524,1641589232060,1641589232067,7
525,1641589232522,1641589232530,8
526,1641589232543,1641589232549,6
527,1641589232888,1641589232896,8
528,1641589233222,1641589233229,7
529,1641589233845,1641589233854,9
530,1641589234058,1641589234066,8
531,1641589234079,1641589234086,7
532,1641589235529,1641589235544,15
533,1641589235957,1641589235965,8
534,1641589237451,1641589239341,1890
535,1641589237777,1641589239385,1608
536,1641589238029,undefined,NaN
537,1641589238807,undefined,NaN
538,1641589238926,undefined,NaN
539,1641589238949,undefined,NaN
540,1641589238989,undefined,NaN
541,1641589239287,undefined,NaN
542,1641589239744,1641589239752,8
543,1641589240734,1641589240742,8
544,1641589241662,1641589241670,8
545,1641589242024,1641589242032,8
546,1641589242278,1641589242286,8
547,1641589244292,1641589244300,8
548,1641589244428,1641589244436,8
549,1641589245244,1641589245261,17
550,1641589245684,1641589246245,561
551,1641589245716,undefined,NaN
552,1641589246021,1641589246282,261
553,1641589246275,1641589246349,74
554,1641589247342,1641589249323,1981
555,1641589247372,undefined,NaN
556,1641589247633,1641589249368,1735
557,1641589248382,undefined,NaN
558,1641589248484,undefined,NaN
559,1641589250137,1641589250146,9
560,1641589250614,1641589250626,12
561,1641589250728,1641589250734,6
562,1641589251877,1641589251885,8
563,1641589251893,1641589251900,7
564,1641589251956,1641589251995,39
565,1641589253004,1641589253012,8
566,1641589253394,1641589253401,7
567,1641589253962,1641589253970,8
568,1641589254148,1641589254157,9
569,1641589254228,1641589254235,7
570,1641589254443,1641589254451,8
571,1641589255192,1641589255199,7
572,1641589255739,1641589255746,7
573,1641589256262,1641589256270,8
574,1641589256340,1641589256353,13
575,1641589256742,1641589256750,8
576,1641589257019,1641589259324,2305
577,1641589257070,undefined,NaN
578,1641589257207,undefined,NaN
579,1641589257229,undefined,NaN
580,1641589257423,undefined,NaN
581,1641589258034,1641589259330,1296
582,1641589258345,1641589259334,989
583,1641589258551,undefined,NaN
584,1641589259468,1641589259542,74
585,1641589261865,1641589261872,7
586,1641589262386,1641589262396,10
587,1641589262479,1641589262487,8
588,1641589262570,1641589262578,8
589,1641589262600,1641589262613,13
590,1641589263001,1641589263020,19
591,1641589263537,1641589263544,7
592,1641589263610,1641589263616,6
593,1641589263781,1641589263788,7
594,1641589263995,1641589264001,6
595,1641589264509,1641589264532,23
596,1641589264840,1641589264846,6
597,1641589264871,1641589264877,6
598,1641589265125,1641589265131,6
599,1641589265246,1641589265252,6
600,1641589266001,1641589266008,7
601,1641589266730,1641589266752,22
602,1641589267192,undefined,NaN
0,1641589322798,1641589322830,32
1,1641589323652,1641589323661,9
2,1641589323788,1641589323795,7
3,1641589324021,1641589324029,8
4,1641589324402,1641589324412,10
5,1641589325218,1641589325225,7
6,1641589325564,1641589325576,12
7,1641589325699,1641589325711,12
8,1641589326881,1641589329349,2468
9,1641589327194,1641589329395,2201
10,1641589327652,undefined,NaN
11,1641589328382,undefined,NaN
12,1641589328609,undefined,NaN
13,1641589329031,undefined,NaN
14,1641589330067,1641589330073,6
15,1641589331233,1641589331240,7
16,1641589331886,1641589331896,10
17,1641589333352,1641589333360,8
18,1641589333535,1641589333541,6
19,1641589334064,1641589334070,6
20,1641589334330,1641589334348,18
21,1641589335308,1641589335314,6
22,1641589335700,1641589335705,5
23,1641589335964,1641589335970,6
24,1641589336616,1641589336623,7
25,1641589337549,1641589339318,1769
26,1641589337729,undefined,NaN
27,1641589338051,1641589339320,1269
28,1641589339241,1641589339325,84
29,1641589339346,1641589339352,6
30,1641589341764,1641589341770,6
31,1641589341908,1641589341915,7
32,1641589342321,1641589342329,8
33,1641589342736,1641589342744,8
34,1641589342889,1641589342896,7
35,1641589343269,1641589343276,7
36,1641589343549,1641589343557,8
37,1641589343938,1641589343945,7
38,1641589345008,1641589345016,8
39,1641589345459,1641589345467,8
40,1641589345931,1641589345944,13
41,1641589348816,1641589349330,514
42,1641589351216,1641589351224,8
43,1641589351991,1641589351999,8
44,1641589352487,1641589352495,8
45,1641589352577,1641589352584,7
46,1641589353536,1641589353544,8
47,1641589355234,1641589355241,7
48,1641589355418,1641589355429,11
49,1641589356443,1641589356452,9
50,1641589356506,1641589356514,8
51,1641589357141,1641589359349,2208
52,1641589357582,1641589359394,1812
53,1641589358341,undefined,NaN
54,1641589358601,undefined,NaN
55,1641589358604,undefined,NaN
56,1641589359426,1641589359433,7
57,1641589359451,1641589359458,7
58,1641589359516,1641589359522,6
59,1641589359903,1641589359910,7
60,1641589360259,1641589360272,13
61,1641589362057,1641589362065,8
62,1641589362566,1641589362574,8
63,1641589362760,1641589362768,8
64,1641589363186,1641589363197,11
65,1641589363243,1641589363261,18
66,1641589363770,1641589363779,9
67,1641589364000,1641589364008,8
68,1641589365703,1641589365711,8
69,1641589367264,1641589369317,2053
70,1641589367368,1641589369324,1956
71,1641589368370,1641589369370,1000
72,1641589369783,1641589369793,10
73,1641589369903,1641589369909,6
74,1641589370034,1641589370042,8
75,1641589370330,1641589370338,8
76,1641589371153,1641589371161,8
77,1641589371324,1641589371333,9
78,1641589371986,1641589371995,9
79,1641589372083,1641589372090,7
80,1641589372461,1641589372470,9
81,1641589372614,1641589372622,8
82,1641589372644,1641589372654,10
83,1641589372682,1641589372691,9
84,1641589373061,1641589373071,10
85,1641589373081,1641589373091,10
86,1641589373271,1641589373279,8
87,1641589373331,1641589373339,8
88,1641589373565,1641589373574,9
89,1641589373969,1641589373976,7
90,1641589374129,1641589374137,8
91,1641589374622,1641589375180,558
92,1641589374691,undefined,NaN
93,1641589374985,1641589375187,202
94,1641589375234,1641589375242,8
95,1641589375272,1641589375279,7
96,1641589375567,1641589375578,11
97,1641589376135,1641589376143,8
98,1641589377063,1641589379321,2258
99,1641589378379,1641589379367,988
100,1641589379672,1641589379680,8
101,1641589380236,1641589380244,8
102,1641589380556,1641589380567,11
103,1641589380654,1641589380662,8
104,1641589380726,1641589380732,6
105,1641589380901,1641589380909,8
106,1641589381418,1641589381426,8
107,1641589382205,1641589382224,19
108,1641589382962,1641589382969,7
109,1641589383094,1641589383101,7
110,1641589384399,1641589384406,7
111,1641589384419,1641589384425,6
112,1641589385270,1641589385283,13
113,1641589385360,1641589385367,7
114,1641589385405,1641589385411,6
115,1641589385751,1641589385763,12
116,1641589385773,1641589385784,11
117,1641589385998,1641589386006,8
118,1641589387791,1641589389318,1527
119,1641589388204,1641589389362,1158
120,1641589388351,undefined,NaN
121,1641589388451,undefined,NaN
122,1641589389551,1641589389559,8
123,1641589390140,1641589390147,7
124,1641589390147,1641589390154,7
125,1641589390476,1641589390483,7
126,1641589390681,1641589390689,8
127,1641589391706,1641589391713,7
128,1641589392614,1641589392627,13
129,1641589393050,1641589393060,10
130,1641589393078,1641589393085,7
131,1641589393442,1641589393451,9
132,1641589393683,1641589393691,8
133,1641589393973,1641589393982,9
134,1641589394150,1641589394158,8
135,1641589394648,1641589394655,7
136,1641589394965,1641589394973,8
137,1641589395154,1641589395163,9
138,1641589396778,1641589396786,8
139,1641589396936,1641589399408,2472
140,1641589398025,undefined,NaN
141,1641589398059,undefined,NaN
142,1641589398756,undefined,NaN
143,1641589398998,undefined,NaN
144,1641589399172,1641589399415,243
145,1641589399379,undefined,NaN
146,1641589399767,1641589399779,12
147,1641589400583,1641589400591,8
148,1641589400741,1641589400749,8
149,1641589401108,1641589401116,8
151,1641589401395,1641589401412,17
152,1641589401419,1641589401426,7
153,1641589401425,1641589401433,8
154,1641589402006,1641589402014,8
155,1641589402424,1641589402432,8
156,1641589403073,1641589403081,8
157,1641589403086,1641589403096,10
158,1641589404789,1641589404798,9
159,1641589404959,1641589404967,8
160,1641589404982,1641589404989,7
161,1641589405281,1641589405289,8
162,1641589405624,1641589405633,9
163,1641589405865,1641589405873,8
164,1641589406828,1641589409324,2496
165,1641589407137,1641589409343,2206
166,1641589407151,undefined,NaN
167,1641589409335,1641589409389,54
168,1641589410015,1641589410023,8
169,1641589410432,1641589410441,9
170,1641589412273,1641589412283,10
171,1641589412524,1641589412532,8
172,1641589413098,1641589413109,11
173,1641589413625,1641589413633,8
174,1641589413874,1641589413882,8
175,1641589413949,1641589413969,20
176,1641589414002,1641589414009,7
177,1641589414708,1641589414717,9
178,1641589415718,1641589415726,8
179,1641589416982,1641589419334,2352
180,1641589417265,undefined,NaN
181,1641589417528,1641589419382,1854
182,1641589417630,undefined,NaN
183,1641589419381,1641589419434,53
184,1641589419438,1641589419445,7
185,1641589420064,1641589420072,8
186,1641589420214,1641589420222,8
187,1641589420771,1641589420783,12
188,1641589420802,1641589420811,9
189,1641589421808,1641589421816,8
190,1641589422819,1641589422826,7
191,1641589422887,1641589422897,10
192,1641589422975,1641589422982,7
193,1641589423215,1641589423223,8
194,1641589423739,1641589423747,8
195,1641589423802,1641589423824,22
196,1641589428242,1641589429316,1074
197,1641589428329,undefined,NaN
198,1641589428556,1641589429360,804
199,1641589428829,undefined,NaN
200,1641589428907,undefined,NaN
201,1641589429171,undefined,NaN
202,1641589429173,undefined,NaN
203,1641589429254,undefined,NaN
204,1641589429644,1641589429652,8
205,1641589429686,1641589429693,7
206,1641589430477,1641589430484,7
207,1641589430630,1641589430638,8
208,1641589431028,1641589431036,8
209,1641589431907,1641589431915,8
210,1641589432251,1641589432264,13
211,1641589432675,1641589432683,8
212,1641589433498,1641589433510,12
213,1641589434000,1641589434007,7
214,1641589434606,1641589434613,7
215,1641589434716,1641589434724,8
216,1641589436758,1641589436766,8
217,1641589436776,1641589436788,12
218,1641589437010,1641589439413,2403
219,1641589437194,undefined,NaN
220,1641589437367,undefined,NaN
221,1641589437843,undefined,NaN
222,1641589438825,1641589439458,633
223,1641589439625,1641589439634,9
224,1641589439745,1641589439751,6
225,1641589440049,1641589440057,8
226,1641589440848,1641589440856,8
227,1641589441346,1641589441354,8
228,1641589441760,1641589441767,7
229,1641589442198,1641589442220,22
230,1641589442225,1641589442231,6
231,1641589442509,1641589442516,7
232,1641589444472,1641589444478,6
233,1641589445088,1641589445094,6
234,1641589445428,1641589445435,7
235,1641589445667,1641589445673,6
236,1641589446710,1641589446718,8
237,1641589447233,1641589449327,2094
238,1641589447449,undefined,NaN
239,1641589447673,1641589449372,1699
240,1641589447779,undefined,NaN
241,1641589448250,undefined,NaN
242,1641589448319,undefined,NaN
243,1641589448451,undefined,NaN
244,1641589449434,1641589449442,8
245,1641589450192,1641589450201,9
246,1641589450731,1641589450738,7
247,1641589450891,1641589450902,11
248,1641589451373,1641589451381,8
249,1641589451886,1641589451894,8
250,1641589451903,1641589451915,12
251,1641589452416,1641589452425,9
252,1641589452784,1641589452792,8
253,1641589452994,1641589453000,6
254,1641589453030,1641589453035,5
255,1641589453693,1641589453705,12
256,1641589454272,1641589454280,8
257,1641589455483,1641589455492,9
258,1641589455744,1641589455753,9
259,1641589456090,1641589456098,8
260,1641589456251,1641589456259,8
261,1641589456507,1641589456515,8
262,1641589456604,1641589456612,8
263,1641589457204,1641589457212,8
264,1641589457309,1641589457316,7
265,1641589458464,1641589458473,9
266,1641589458590,1641589458599,9
267,1641589461217,1641589461226,9
268,1641589461231,1641589461238,7
269,1641589462193,1641589462201,8
270,1641589462353,1641589462362,9
271,1641589463373,1641589463382,9
272,1641589463520,1641589463527,7
273,1641589463959,1641589463968,9
274,1641589464272,1641589464282,10
275,1641589466704,1641589466712,8
276,1641589467016,1641589469357,2341
277,1641589467269,undefined,NaN
278,1641589467904,1641589469401,1497
279,1641589469132,1641589469405,273
280,1641589469292,undefined,NaN
281,1641589469398,1641589469450,52
282,1641589471206,1641589471212,6
283,1641589471606,1641589471618,12
284,1641589471701,1641589471709,8
285,1641589471908,1641589471921,13
286,1641589472655,1641589472662,7
287,1641589473111,1641589473128,17
288,1641589473677,1641589473685,8
289,1641589473973,1641589473981,8
290,1641589474189,1641589474203,14
291,1641589474404,1641589474412,8
292,1641589474996,1641589475006,10
293,1641589475885,1641589475893,8
294,1641589476507,1641589476519,12
295,1641589476955,1641589479354,2399
296,1641589476960,undefined,NaN
297,1641589477507,1641589479399,1892
298,1641589478218,undefined,NaN
299,1641589478659,undefined,NaN
300,1641589479401,1641589479425,24
302,1641589479680,1641589479696,16
303,1641589480885,1641589480905,20
304,1641589481615,1641589481623,8
305,1641589481893,1641589481900,7
306,1641589482369,1641589482381,12
307,1641589483995,1641589484003,8
308,1641589484229,1641589484237,8
309,1641589484283,1641589484292,9
310,1641589484738,1641589485042,304
311,1641589484905,1641589485088,183
312,1641589485100,1641589485121,21
313,1641589485338,1641589485347,9
314,1641589485391,1641589485400,9
315,1641589485808,1641589485816,8
316,1641589486447,1641589486455,8
317,1641589486909,1641589489326,2417
318,1641589487245,1641589489371,2126
319,1641589487833,undefined,NaN
320,1641589488848,undefined,NaN
321,1641589490557,1641589490562,5
322,1641589491447,1641589491455,8
323,1641589491791,1641589491799,8
324,1641589493259,1641589493267,8
325,1641589493532,1641589493539,7
326,1641589493549,1641589493560,11
327,1641589494058,1641589494066,8
328,1641589494310,1641589494316,6
329,1641589494994,1641589495001,7
330,1641589495803,1641589495811,8
331,1641589496544,1641589496552,8
332,1641589496756,1641589496779,23
333,1641589497426,1641589500059,2633
334,1641589498528,undefined,NaN
335,1641589499033,undefined,NaN
336,1641589499156,undefined,NaN
337,1641589499350,undefined,NaN
338,1641589499392,undefined,NaN
339,1641589499745,undefined,NaN
340,1641589499942,undefined,NaN
341,1641589502259,1641589502270,11
342,1641589502382,1641589502388,6
343,1641589502488,1641589502496,8
344,1641589502860,1641589502870,10
345,1641589502884,1641589502892,8
346,1641589503450,1641589503458,8
347,1641589504021,1641589504029,8
348,1641589504104,1641589504111,7
349,1641589504169,1641589504181,12
350,1641589505910,1641589505917,7
351,1641589505998,1641589506004,6
352,1641589506217,1641589506225,8
353,1641589506294,1641589506301,7
354,1641589506813,1641589509320,2507
355,1641589508788,1641589509365,577
356,1641589509412,1641589509418,6
357,1641589510221,1641589510228,7
358,1641589510323,1641589510329,6
359,1641589510816,1641589510825,9
360,1641589512289,1641589512296,7
361,1641589512404,1641589512409,5
362,1641589513748,1641589513755,7
363,1641589513849,1641589513855,6
364,1641589515020,1641589515027,7
365,1641589516565,1641589516573,8
366,1641589517220,1641589519320,2100
367,1641589517273,undefined,NaN
368,1641589517631,1641589519326,1695
369,1641589518308,1641589519331,1023
370,1641589518321,undefined,NaN
371,1641589520822,1641589520830,8
372,1641589520954,1641589520962,8
373,1641589521092,1641589521098,6
374,1641589521501,1641589521516,15
375,1641589521521,1641589521528,7
376,1641589521695,1641589521702,7
377,1641589523766,1641589523780,14
378,1641589523984,1641589523991,7
379,1641589524141,1641589524149,8
380,1641589524425,1641589524434,9
381,1641589525003,1641589525013,10
382,1641589525204,1641589525211,7
383,1641589525356,1641589525365,9
384,1641589525849,1641589525860,11
385,1641589526470,1641589526478,8
386,1641589526694,1641589526708,14
387,1641589527185,1641589529321,2136
388,1641589527320,undefined,NaN
389,1641589528230,1641589529365,1135
390,1641589529060,undefined,NaN
391,1641589529250,undefined,NaN
392,1641589529793,1641589529800,7
393,1641589529819,1641589529826,7
394,1641589529924,1641589529932,8
395,1641589530442,1641589530470,28
396,1641589530551,1641589530574,23
397,1641589531770,1641589531784,14
398,1641589531969,1641589531975,6
399,1641589532815,1641589532822,7
400,1641589533820,1641589533826,6
401,1641589535279,1641589535286,7
402,1641589535443,1641589535450,7
403,1641589535557,1641589535562,5
404,1641589535598,1641589535605,7
405,1641589536261,1641589536269,8
406,1641589537107,1641589539324,2217
407,1641589537280,undefined,NaN
408,1641589537693,undefined,NaN
409,1641589537696,undefined,NaN
410,1641589538284,1641589539328,1044
411,1641589538374,undefined,NaN
412,1641589539626,1641589539634,8
413,1641589539912,1641589539921,9
414,1641589539992,1641589540013,21
415,1641589540196,1641589540203,7
416,1641589540492,1641589540500,8
417,1641589541511,1641589541521,10
418,1641589541640,1641589541650,10
419,1641589541784,1641589541792,8
420,1641589542238,1641589542246,8
421,1641589544692,1641589544700,8
422,1641589544755,1641589544777,22
423,1641589544778,1641589544784,6
424,1641589545326,1641589545334,8
425,1641589546069,1641589546077,8
426,1641589546778,1641589546788,10
427,1641589546938,1641589549418,2480
428,1641589547201,undefined,NaN
429,1641589547440,undefined,NaN
430,1641589547455,undefined,NaN
431,1641589547668,undefined,NaN
432,1641589548163,undefined,NaN
433,1641589549822,1641589549830,8
434,1641589550771,1641589550784,13
435,1641589551198,1641589551206,8
436,1641589551237,1641589551243,6
437,1641589551666,1641589551674,8
438,1641589552384,1641589552392,8
439,1641589553681,1641589553689,8
440,1641589553726,1641589553739,13
441,1641589554070,1641589554077,7
442,1641589554206,1641589554219,13
443,1641589554561,1641589554570,9
444,1641589554596,1641589554605,9
445,1641589554636,1641589554653,17
446,1641589554658,1641589554666,8
447,1641589555163,1641589555171,8
448,1641589555369,1641589555378,9
449,1641589555853,1641589555860,7
450,1641589556971,1641589559321,2350
451,1641589557385,undefined,NaN
453,1641589557991,undefined,NaN
454,1641589559104,undefined,NaN
455,1641589559521,1641589559529,8
456,1641589559708,1641589559715,7
457,1641589559722,1641589559729,7
458,1641589560164,1641589560171,7
459,1641589560882,1641589560891,9
460,1641589560939,1641589560958,19
461,1641589561653,1641589561661,8
462,1641589561967,1641589561973,6
463,1641589563408,1641589563416,8
464,1641589565270,1641589565279,9
465,1641589565643,1641589565651,8
466,1641589565732,1641589565740,8
467,1641589565795,1641589565804,9
468,1641589566285,1641589566293,8
469,1641589566332,1641589566340,8
470,1641589566528,1641589566541,13
471,1641589566806,1641589569324,2518
472,1641589567250,1641589569325,2075
473,1641589567397,undefined,NaN
474,1641589567538,undefined,NaN
475,1641589567669,undefined,NaN
476,1641589568005,undefined,NaN
477,1641589568978,1641589569329,351
478,1641589569062,undefined,NaN
479,1641589569315,undefined,NaN
480,1641589569689,1641589569696,7
481,1641589569704,1641589569711,7
482,1641589570063,1641589570079,16
483,1641589570304,1641589570320,16
484,1641589570481,1641589570489,8
485,1641589570909,1641589570916,7
486,1641589571726,1641589571740,14
487,1641589572063,1641589572070,7
488,1641589572572,1641589572579,7
489,1641589573847,1641589573855,8
490,1641589573896,1641589573925,29
491,1641589574245,1641589574253,8
492,1641589574960,1641589574968,8
493,1641589574972,1641589574978,6
494,1641589576104,1641589576118,14
495,1641589576414,1641589576423,9
496,1641589576962,1641589579322,2360
497,1641589577611,1641589579366,1755
498,1641589578341,undefined,NaN
499,1641589578511,undefined,NaN
500,1641589579605,1641589579615,10
501,1641589579844,1641589579852,8
502,1641589580372,1641589580384,12
503,1641589581973,1641589581980,7
504,1641589583393,1641589583401,8
505,1641589583786,1641589583795,9
506,1641589584184,1641589584193,9
507,1641589584569,1641589584577,8
508,1641589585536,1641589585544,8
509,1641589585546,1641589585553,7
510,1641589586150,1641589586157,7
511,1641589586521,1641589586529,8
512,1641589586603,1641589586610,7
513,1641589586705,1641589586712,7
514,1641589588617,1641589589318,701
515,1641589588632,1641589589339,707
516,1641589589234,1641589589443,209
517,1641589589458,1641589589548,90
518,1641589589947,1641589589957,10
519,1641589590246,1641589590265,19
520,1641589590515,1641589590571,56
521,1641589590690,1641589590781,91
522,1641589591108,1641589591158,50
523,1641589591409,1641589591493,84
524,1641589591504,1641589591593,89
525,1641589591908,1641589592005,97
526,1641589592303,1641589592415,112
527,1641589592422,1641589592516,94
528,1641589592904,1641589592933,29
529,1641589593336,1641589593439,103
530,1641589593690,1641589593752,62
531,1641589594064,1641589594156,92
532,1641589594649,1641589594668,19
533,1641589596247,1641589596306,59
534,1641589596836,1641589599315,2479
535,1641589596903,undefined,NaN
536,1641589597328,1641589599359,2031
537,1641589599250,undefined,NaN
538,1641589599649,1641589599656,7
539,1641589599683,1641589599691,8
540,1641589599830,1641589599838,8
541,1641589600147,1641589600155,8
542,1641589600247,1641589600255,8
543,1641589600767,1641589600780,13
544,1641589600999,1641589601007,8
545,1641589601641,1641589601649,8
546,1641589601906,1641589601914,8
547,1641589602783,1641589602790,7
548,1641589605011,1641589605022,11
549,1641589606089,1641589606096,7
550,1641589606262,1641589606270,8
551,1641589607243,1641589609317,2074
552,1641589607294,undefined,NaN
553,1641589607395,undefined,NaN
554,1641589607570,1641589609362,1792
555,1641589608114,undefined,NaN
556,1641589608598,undefined,NaN
557,1641589608849,undefined,NaN
558,1641589608916,undefined,NaN
559,1641589609095,undefined,NaN
560,1641589609294,undefined,NaN
561,1641589609743,1641589609753,10
562,1641589609973,1641589609981,8
563,1641589610125,1641589610134,9
564,1641589610406,1641589610414,8
565,1641589612496,1641589612514,18
566,1641589614173,1641589614181,8
567,1641589614232,1641589614241,9
568,1641589614441,1641589614449,8
569,1641589615497,1641589615506,9
570,1641589615713,1641589615721,8
571,1641589616037,1641589616045,8
572,1641589616657,1641589616667,10
573,1641589616885,1641589619348,2463
574,1641589616904,1641589619393,2489
575,1641589617617,undefined,NaN
576,1641589618224,undefined,NaN
577,1641589618684,undefined,NaN
578,1641589619252,undefined,NaN
579,1641589619476,1641589619484,8
580,1641589619620,1641589619625,5
581,1641589620571,1641589620579,8
582,1641589620830,1641589620838,8
583,1641589620997,1641589621017,20
584,1641589621017,1641589621022,5
585,1641589622457,1641589622464,7
586,1641589623194,1641589623201,7
587,1641589623306,1641589623312,6
588,1641589623520,1641589623526,6
589,1641589623624,1641589623630,6
590,1641589624007,1641589624013,6
591,1641589624280,1641589624290,10
592,1641589624528,1641589624540,12
593,1641589624903,1641589624911,8
594,1641589625449,1641589625456,7
595,1641589625717,1641589625727,10
596,1641589625772,1641589625792,20
597,1641589626428,1641589626439,11
598,1641589626736,1641589626746,10
599,1641589627747,1641589629314,1567
600,1641589627888,undefined,NaN
601,1641589627892,undefined,NaN
602,1641589628576,1641589629360,784

