0,1642512374479.00,1642512374494.00,15,10.79
1,1642512375036.00,1642512375046.00,10,
2,1642512375424.00,1642512375434.00,10,
3,1642512380080.00,1642512380088.00,8,
4,1642512380126.00,1642512380134.00,8,
5,1642512382574.00,1642512382583.00,9,
6,1642512382574.00,1642512382583.00,9,
7,1642512382636.00,1642512382646.00,10,
8,1642512383025.00,1642512383035.00,10,
9,1642512383861.00,1642512383870.00,9,
10,1642512383861.00,1642512383870.00,9,
11,1642512384635.00,1642512384644.00,9,
12,1642512384635.00,1642512384644.00,9,
13,1642512389890.00,1642512389899.00,9,
14,1642512389890.00,1642512389899.00,9,
15,1642512390183.00,1642512390193.00,10,
16,1642512390354.00,1642512390364.00,10,
17,1642512394581.00,1642512394591.00,10,
18,1642512394581.00,1642512394591.00,10,
19,1642512395855.00,1642512395865.00,10,
20,1642512395855.00,1642512395865.00,10,
21,1642512400055.00,1642512400066.00,11,
22,1642512402005.00,1642512402016.00,11,
23,1642512404957.00,1642512404975.00,18,
24,1642512405968.00,1642512405979.00,11,
25,1642512406156.00,1642512406166.00,10,
26,1642512406156.00,1642512406166.00,10,
27,1642512409357.00,1642512409368.00,11,
28,1642512409917.00,1642512409928.00,11,
29,1642512411459.00,1642512411470.00,11,
30,1642512412311.00,1642512412321.00,10,
31,1642512412311.00,1642512412321.00,10,
32,1642512413741.00,1642512413751.00,10,
33,1642512413741.00,1642512413751.00,10,
34,1642512419198.00,1642512419208.00,10,
35,1642512419198.00,1642512419208.00,10,
36,1642512421096.00,1642512421107.00,11,
37,1642512425010.00,1642512425021.00,11,
38,1642512431117.00,1642512431128.00,11,
39,1642512434663.00,1642512434674.00,11,
40,1642512435318.00,1642512435329.00,11,
41,1642512436095.00,1642512436105.00,10,
42,1642512436095.00,1642512436105.00,10,
43,1642512440623.00,1642512440634.00,11,
44,1642512442635.00,1642512442646.00,11,
45,1642512443349.00,1642512443360.00,11,
46,1642512443739.00,1642512443750.00,11,
47,1642512444580.00,1642512444591.00,11,
48,1642512452367.00,1642512452378.00,11,
49,1642512455647.00,1642512455658.00,11,
50,1642512456019.00,1642512456030.00,11,
51,1642512460731.00,1642512460742.00,11,
52,1642512464472.00,1642512464480.00,8,
53,1642512469640.00,1642512469656.00,16,
54,1642512470371.00,1642512470382.00,11,
55,1642512470573.00,1642512470582.00,9,
56,1642512470573.00,1642512470582.00,9,
57,1642512470915.00,1642512470926.00,11,
58,1642512470961.00,1642512470979.00,18,
59,1642512471876.00,1642512471887.00,11,
60,1642512472853.00,1642512472870.00,17,
61,1642512475249.00,1642512475260.00,11,
62,1642512476200.00,1642512476211.00,11,
63,1642512479604.00,1642512479615.00,11,
64,1642512482326.00,1642512482337.00,11,
65,1642512489420.00,1642512489430.00,10,
66,1642512489420.00,1642512489430.00,10,
67,1642512490353.00,1642512490362.00,9,
68,1642512490353.00,1642512490362.00,9,
69,1642512491349.00,1642512491363.00,14,
70,1642512493172.00,1642512493183.00,11,
71,1642512494599.00,1642512494611.00,12,
72,1642512494785.00,1642512494795.00,10,
73,1642512494785.00,1642512494795.00,10,
74,1642512495235.00,1642512495244.00,9,
75,1642512495235.00,1642512495244.00,9,
76,1642512495329.00,1642512495339.00,10,
77,1642512495329.00,1642512495339.00,10,
78,1642512496230.00,1642512496241.00,11,
79,1642512501597.00,1642512501608.00,11,
80,1642512504734.00,1642512504745.00,11,
81,1642512505638.00,1642512505649.00,11,
82,1642512513916.00,1642512513928.00,12,
83,1642512521062.00,1642512521073.00,11,
84,1642512521203.00,1642512521212.00,9,
85,1642512524466.00,1642512524477.00,11,
86,1642512524965.00,1642512524977.00,12,
87,1642512530895.00,1642512530906.00,11,
88,1642512533710.00,1642512533721.00,11,
89,1642512534893.00,1642512534908.00,15,
90,1642512535903.00,1642512535914.00,11,
91,1642512541500.00,1642512541517.00,17,
92,1642512542088.00,1642512542099.00,11,
93,1642512542554.00,1642512542565.00,11,
94,1642512543208.00,1642512543218.00,10,
95,1642512543208.00,1642512543218.00,10,
96,1642512543828.00,1642512543840.00,12,
97,1642512549633.00,1642512549644.00,11,
98,1642512550795.00,1642512550806.00,11,
99,1642512551154.00,1642512551165.00,11,
