0,1642508134924.00,1642508134932.00,8,10.96
1,1642508134932.00,1642508134943.00,11,
2,1642508134971.00,1642508134980.00,9,
3,1642508135279.00,1642508135289.00,10,
4,1642508135390.00,1642508135398.00,8,
5,1642508135637.00,1642508135646.00,9,
6,1642508135645.00,1642508135654.00,9,
7,1642508136085.00,1642508136094.00,9,
8,1642508136271.00,1642508136279.00,8,
9,1642508136302.00,1642508136310.00,8,
10,1642508136708.00,1642508136717.00,9,
11,1642508136846.00,1642508136854.00,8,
12,1642508136939.00,1642508136948.00,9,
13,1642508137094.00,1642508137114.00,20,
14,1642508137141.00,1642508137150.00,9,
15,1642508137172.00,1642508137183.00,11,
16,1642508137342.00,1642508137352.00,10,
17,1642508137464.00,1642508137474.00,10,
18,1642508138301.00,1642508138310.00,9,
19,1642508138580.00,1642508138589.00,9,
20,1642508140139.00,1642508140148.00,9,
21,1642508140218.00,1642508140236.00,18,
22,1642508140808.00,1642508140822.00,14,
23,1642508140932.00,1642508140941.00,9,
24,1642508141287.00,1642508141296.00,9,
25,1642508144707.00,1642508144718.00,11,
26,1642508144738.00,1642508144747.00,9,
27,1642508145039.00,1642508145049.00,10,
28,1642508146033.00,1642508146042.00,9,
29,1642508146971.00,1642508146981.00,10,
30,1642508147018.00,1642508147028.00,10,
31,1642508147095.00,1642508147106.00,11,
32,1642508147141.00,1642508147151.00,10,
33,1642508147638.00,1642508147648.00,10,
34,1642508148898.00,1642508148915.00,17,
35,1642508149481.00,1642508149502.00,21,
36,1642508150180.00,1642508150191.00,11,
37,1642508150458.00,1642508150469.00,11,
38,1642508150737.00,1642508150748.00,11,
39,1642508151205.00,1642508151215.00,10,
40,1642508154908.00,1642508154919.00,11,
41,1642508154939.00,1642508154948.00,9,
42,1642508155096.00,1642508155107.00,11,
43,1642508155235.00,1642508155245.00,10,
44,1642508155576.00,1642508155586.00,10,
45,1642508156819.00,1642508156831.00,12,
46,1642508157114.00,1642508157124.00,10,
47,1642508157145.00,1642508157156.00,11,
48,1642508157283.00,1642508157291.00,8,
49,1642508157329.00,1642508157338.00,9,
50,1642508157423.00,1642508157432.00,9,
51,1642508157517.00,1642508157526.00,9,
52,1642508157625.00,1642508157633.00,8,
53,1642508157843.00,1642508157853.00,10,
54,1642508157853.00,1642508157862.00,9,
55,1642508157853.00,1642508157872.00,19,
56,1642508158013.00,1642508158022.00,9,
57,1642508158293.00,1642508158308.00,15,
58,1642508158355.00,1642508158364.00,9,
59,1642508158524.00,1642508158533.00,9,
60,1642508158710.00,1642508158730.00,20,
61,1642508158945.00,1642508158954.00,9,
62,1642508159023.00,1642508159032.00,9,
63,1642508159069.00,1642508159082.00,13,
64,1642508159209.00,1642508159227.00,18,
65,1642508159226.00,1642508159237.00,11,
66,1642508159237.00,1642508159246.00,9,
67,1642508159287.00,1642508159297.00,10,
68,1642508159410.00,1642508159421.00,11,
69,1642508159581.00,1642508159592.00,11,
70,1642508159850.00,1642508159862.00,12,
71,1642508159944.00,1642508159957.00,13,
72,1642508159991.00,1642508160002.00,11,
73,1642508160164.00,1642508160174.00,10,
74,1642508160467.00,1642508160478.00,11,
75,1642508160547.00,1642508160559.00,12,
76,1642508165630.00,1642508165652.00,22,
77,1642508165739.00,1642508165750.00,11,
78,1642508165815.00,1642508165828.00,13,
79,1642508166032.00,1642508166046.00,14,
80,1642508166172.00,1642508166181.00,9,
81,1642508166234.00,1642508166250.00,16,
82,1642508166483.00,1642508166493.00,10,
83,1642508166484.00,1642508166501.00,17,
84,1642508166640.00,1642508166649.00,9,
85,1642508166779.00,1642508166791.00,12,
86,1642508169483.00,1642508169492.00,9,
87,1642508169546.00,1642508169562.00,16,
88,1642508169562.00,1642508169570.00,8,
89,1642508169738.00,1642508169747.00,9,
90,1642508169940.00,1642508169951.00,11,
91,1642508170109.00,1642508170120.00,11,
92,1642508170186.00,1642508170198.00,12,
93,1642508170263.00,1642508170279.00,16,
94,1642508170588.00,1642508170600.00,12,
95,1642508170635.00,1642508170653.00,18,
96,1642508170793.00,1642508170804.00,11,
97,1642508171043.00,1642508171053.00,10,
98,1642508174864.00,1642508174877.00,13,
99,1642508174974.00,1642508174983.00,9,
100,1642508175005.00,1642508175013.00,8,
101,1642508175269.00,1642508175280.00,11,
102,1642508175797.00,1642508175807.00,10,
103,1642508176355.00,1642508176377.00,22,
104,1642508177268.00,1642508177279.00,11,
105,1642508177672.00,1642508177682.00,10,
106,1642508178060.00,1642508178072.00,12,
107,1642508179272.00,1642508179285.00,13,
108,1642508180328.00,1642508180339.00,11,
109,1642508180500.00,1642508180513.00,13,
110,1642508180732.00,1642508180742.00,10,
111,1642508181073.00,1642508181083.00,10,
112,1642508181151.00,1642508181161.00,10,
113,1642508185086.00,1642508185097.00,11,
114,1642508185102.00,1642508185111.00,9,
115,1642508185111.00,1642508185121.00,10,
116,1642508186018.00,1642508186029.00,11,
117,1642508186607.00,1642508186617.00,10,
118,1642508186617.00,1642508186626.00,9,
119,1642508186746.00,1642508186755.00,9,
120,1642508187258.00,1642508187269.00,11,
121,1642508187443.00,1642508187453.00,10,
122,1642508187506.00,1642508187515.00,9,
123,1642508187552.00,1642508187562.00,10,
124,1642508187706.00,1642508187716.00,10,
125,1642508188422.00,1642508188432.00,10,
126,1642508188997.00,1642508189006.00,9,
127,1642508190238.00,1642508190249.00,11,
128,1642508190800.00,1642508190810.00,10,
129,1642508191095.00,1642508191106.00,11,
130,1642508195003.00,1642508195012.00,9,
131,1642508195142.00,1642508195151.00,9,
132,1642508195174.00,1642508195183.00,9,
133,1642508195220.00,1642508195228.00,8,
134,1642508195577.00,1642508195594.00,17,
135,1642508195891.00,1642508195902.00,11,
136,1642508197319.00,1642508197328.00,9,
137,1642508197459.00,1642508197469.00,10,
138,1642508197490.00,1642508197506.00,16,
139,1642508197536.00,1642508197545.00,9,
140,1642508197815.00,1642508197824.00,9,
141,1642508198032.00,1642508198041.00,9,
142,1642508198080.00,1642508198089.00,9,
143,1642508199336.00,1642508199346.00,10,
144,1642508199507.00,1642508199517.00,10,
145,1642508200362.00,1642508200373.00,11,
146,1642508200873.00,1642508200883.00,10,
147,1642508201151.00,1642508201161.00,10,
148,1642508201493.00,1642508201506.00,13,
149,1642508204719.00,1642508204727.00,8,
150,1642508204719.00,1642508204736.00,17,
151,1642508206554.00,1642508206564.00,10,
152,1642508206832.00,1642508206843.00,11,
153,1642508206863.00,1642508206872.00,9,
154,1642508207002.00,1642508207012.00,10,
155,1642508207564.00,1642508207578.00,14,
156,1642508208140.00,1642508208149.00,9,
157,1642508208778.00,1642508208788.00,10,
158,1642508208889.00,1642508208899.00,10,
159,1642508209044.00,1642508209063.00,19,
160,1642508209401.00,1642508209410.00,9,
161,1642508210164.00,1642508210174.00,10,
162,1642508210632.00,1642508210642.00,10,
163,1642508210756.00,1642508210766.00,10,
164,1642508211112.00,1642508211123.00,11,
165,1642508211206.00,1642508211217.00,11,
166,1642508211314.00,1642508211324.00,10,
167,1642508215139.00,1642508215150.00,11,
168,1642508215308.00,1642508215318.00,10,
169,1642508215480.00,1642508215489.00,9,
170,1642508215512.00,1642508215520.00,8,
171,1642508216319.00,1642508216330.00,11,
172,1642508216601.00,1642508216611.00,10,
173,1642508217577.00,1642508217588.00,11,
174,1642508217623.00,1642508217634.00,11,
175,1642508217686.00,1642508217697.00,11,
176,1642508217718.00,1642508217726.00,8,
177,1642508217781.00,1642508217791.00,10,
178,1642508218351.00,1642508218360.00,9,
179,1642508218800.00,1642508218819.00,19,
180,1642508218908.00,1642508218924.00,16,
181,1642508219298.00,1642508219309.00,11,
182,1642508219761.00,1642508219772.00,11,
183,1642508220519.00,1642508220530.00,11,
184,1642508220643.00,1642508220657.00,14,
185,1642508221357.00,1642508221374.00,17,
186,1642508221467.00,1642508221481.00,14,
187,1642508224934.00,1642508224944.00,10,
188,1642508225444.00,1642508225454.00,10,
189,1642508225507.00,1642508225516.00,9,
190,1642508225757.00,1642508225766.00,9,
191,1642508226254.00,1642508226263.00,9,
192,1642508227152.00,1642508227162.00,10,
193,1642508227261.00,1642508227270.00,9,
194,1642508227573.00,1642508227582.00,9,
195,1642508227696.00,1642508227705.00,9,
196,1642508227913.00,1642508227924.00,11,
197,1642508228428.00,1642508228438.00,10,
198,1642508228754.00,1642508228764.00,10,
199,1642508228910.00,1642508228920.00,10,
